{
    "fields": [
        {
            "name": "VER_TRT_DAT",
            "type": "string",
            "format": "default"
        },
        {
            "name": "VER_TRT_NRO",
            "type": "integer",
            "format": "default",
            "role": "code"
        },
        {
            "name": "VER_TRT_VRS",
            "type": "integer",
            "format": "default"
        }
    ],
    "missingValues": [
        ""
    ],
    "name": "IR_BVR_R",
    "primaryKey": [
        "VER_TRT_DAT"
    ]
}