{
    "fields": [
        {
            "name": "ETA_NUM",
            "description": "Numéro FINESS ePMSI",
            "type": "string",
            "nomenclature": "-",
            "length": "9.0",
            "format": "default",
            "dateCreated": "2021",
            "dateDeleted": "",
            "dateMissing": [],
            "observation": "",
            "regle_gestion": "",
            "type_oracle": "string"
        },
        {
            "name": "FIC_TYP",
            "description": "Type de fichier",
            "type": "string",
            "nomenclature": "-",
            "length": "3.0",
            "format": "default",
            "dateCreated": "2021",
            "dateDeleted": "",
            "dateMissing": [],
            "observation": "",
            "regle_gestion": "",
            "type_oracle": "string"
        },
        {
            "name": "ANN_MOI",
            "description": "Année et Mois de la période de transmission",
            "type": "date",
            "nomenclature": "-",
            "length": "6.0",
            "format": "default",
            "dateCreated": "2021",
            "dateDeleted": "",
            "dateMissing": [],
            "observation": "",
            "regle_gestion": "",
            "type_oracle": "string"
        },
        {
            "name": "TYP_TEST",
            "description": "Type de tests",
            "type": "string",
            "nomenclature": "-",
            "length": "1.0",
            "format": "default",
            "dateCreated": "2021",
            "dateDeleted": "",
            "dateMissing": [],
            "observation": "",
            "regle_gestion": "",
            "type_oracle": "string"
        },
        {
            "name": "ACT_COD",
            "description": "Code de l'acte",
            "type": "string",
            "nomenclature": "-",
            "length": "7.0",
            "format": "default",
            "dateCreated": "2021",
            "dateDeleted": "",
            "dateMissing": [],
            "observation": "",
            "regle_gestion": "",
            "type_oracle": "string"
        },
        {
            "name": "PMP",
            "description": "Prix moyen pondéré par l'effectif des autotests du personnel \nnon vacciné du 08/08/2021 au 15/10/2021 ",
            "type": "integer",
            "nomenclature": "-",
            "length": "",
            "format": "default",
            "dateCreated": "2022",
            "dateDeleted": "",
            "dateMissing": [],
            "observation": "",
            "regle_gestion": "",
            "type_oracle": "number"
        },
        {
            "name": "PERIOD_ACT",
            "description": "Période d'execution",
            "type": "string",
            "nomenclature": "-",
            "length": "1.0",
            "format": "default",
            "dateCreated": "2021",
            "dateDeleted": "",
            "dateMissing": [],
            "observation": "",
            "regle_gestion": "",
            "type_oracle": "string"
        },
        {
            "name": "NBR_ACT",
            "description": "Nombre d'actes réalisés",
            "type": "integer",
            "nomenclature": "-",
            "length": "10.0",
            "format": "default",
            "dateCreated": "2021",
            "dateDeleted": "",
            "dateMissing": [],
            "observation": "",
            "regle_gestion": "",
            "type_oracle": "number"
        }
    ],
    "missingValues": [
        ""
    ],
    "name": "T_SSRaaSUP_DSC",
    "title": "Tests diagnostiques Covid",
    "produit": "PMSI SSR",
    "foreignKeys": [
        {
            "fields": [
                "ETA_NUM"
            ],
            "reference": {
                "resource": "T_SSRaaE",
                "fields": [
                    "ETA_NUM"
                ]
            }
        }
    ],
    "history": {
        "dateCreated": "2021",
        "dateDeleted": "",
        "dateMissing": []
    },
    "champ": "Public",
    "observation": ""
}