{
    "fields": [
        {
            "name": "ETA_NUM",
            "description": "N° FINESS",
            "type": "string",
            "nomenclature": "-",
            "length": "9.0",
            "format": "default",
            "dateCreated": "2010",
            "dateDeleted": "",
            "dateMissing": [],
            "observation": "Renommée (ancien nom : SOR_MOI)",
            "regle_gestion": "",
            "type_oracle": "string"
        },
        {
            "name": "PRS_TYP",
            "description": "Type de prestation",
            "type": "string",
            "nomenclature": "-",
            "length": "2.0",
            "format": "default",
            "dateCreated": "2010",
            "dateDeleted": "",
            "dateMissing": [],
            "observation": "",
            "regle_gestion": "",
            "type_oracle": "string"
        },
        {
            "name": "ANN",
            "description": "Année période",
            "type": "string",
            "nomenclature": "-",
            "length": "4.0",
            "format": "default",
            "dateCreated": "2010",
            "dateDeleted": "",
            "dateMissing": [],
            "observation": "",
            "regle_gestion": "",
            "type_oracle": "string"
        },
        {
            "name": "MOIS",
            "description": "N° période (mois)",
            "type": "date",
            "nomenclature": "-",
            "length": "2.0",
            "format": "default",
            "dateCreated": "2010",
            "dateDeleted": "",
            "dateMissing": [],
            "observation": "",
            "regle_gestion": "",
            "type_oracle": "string"
        },
        {
            "name": "RHA_NUM",
            "description": "N° Séquentiel du séjour",
            "type": "string",
            "nomenclature": "-",
            "length": "7.0",
            "format": "default",
            "dateCreated": "2010",
            "dateDeleted": "",
            "dateMissing": [],
            "observation": "",
            "regle_gestion": "",
            "type_oracle": "string"
        },
        {
            "name": "RHS_NUM",
            "description": "Numéro séquentiel du RHS",
            "type": "string",
            "nomenclature": "-",
            "length": "3.0",
            "format": "default",
            "dateCreated": "2010",
            "dateDeleted": "",
            "dateMissing": [],
            "observation": "",
            "regle_gestion": "",
            "type_oracle": "string"
        },
        {
            "name": "UCD_UCD_COD",
            "description": "Code UCD",
            "type": "string",
            "nomenclature": "-",
            "length": "13.0",
            "format": "default",
            "dateCreated": "2010",
            "dateDeleted": "",
            "dateMissing": [],
            "observation": "Transmise par ATIH sur 13 caractères à partir de 2015 (créée par CNAM avt)",
            "regle_gestion": "",
            "type_oracle": "string"
        },
        {
            "name": "ADM_NBR",
            "description": "Nombre administré éventuellement fractionnaire",
            "type": "integer",
            "nomenclature": "-",
            "length": "",
            "format": "default",
            "dateCreated": "2010",
            "dateDeleted": "",
            "dateMissing": [],
            "observation": "",
            "regle_gestion": "",
            "type_oracle": "number"
        },
        {
            "name": "ACH_PRI_ADM",
            "description": "Prix d'achat multiplié par le nombre administré",
            "type": "integer",
            "nomenclature": "-",
            "length": "",
            "format": "default",
            "dateCreated": "2010",
            "dateDeleted": "",
            "dateMissing": [],
            "observation": "",
            "regle_gestion": "",
            "type_oracle": "number"
        },
        {
            "name": "ADM_MOIS",
            "description": "Mois de la date d'administration",
            "type": "date",
            "nomenclature": "-",
            "length": "2.0",
            "format": "default",
            "dateCreated": "2010",
            "dateDeleted": "",
            "dateMissing": [],
            "observation": "",
            "regle_gestion": "",
            "type_oracle": "string"
        },
        {
            "name": "ADM_ANN",
            "description": "Année de la date d'administration",
            "type": "string",
            "nomenclature": "-",
            "length": "4.0",
            "format": "default",
            "dateCreated": "2010",
            "dateDeleted": "",
            "dateMissing": [],
            "observation": "",
            "regle_gestion": "",
            "type_oracle": "string"
        },
        {
            "name": "DAT_DELAI",
            "description": "Délai entre la date d’entrée du séjour et la date de dispensation",
            "type": "integer",
            "nomenclature": "-",
            "length": "",
            "format": "default",
            "dateCreated": "2010",
            "dateDeleted": "",
            "dateMissing": [],
            "observation": "",
            "regle_gestion": "",
            "type_oracle": "number"
        },
        {
            "name": "TOP_UCD_AUTO",
            "description": "Top transcodage UCD13 auto",
            "type": "string",
            "nomenclature": "-",
            "length": "1.0",
            "format": "default",
            "dateCreated": "2015",
            "dateDeleted": "",
            "dateMissing": [],
            "observation": "",
            "regle_gestion": "",
            "type_oracle": "string"
        },
        {
            "name": "UCD_COD",
            "description": "Code UCD",
            "type": "string",
            "nomenclature": "-",
            "length": "9.0",
            "format": "default",
            "dateCreated": "2010",
            "dateDeleted": "2015",
            "dateMissing": [],
            "observation": "",
            "regle_gestion": "",
            "type_oracle": "string"
        }
    ],
    "missingValues": [
        ""
    ],
    "name": "T_SSRaaMED",
    "title": "Med en sus",
    "produit": "PMSI SSR",
    "foreignKeys": [
        {
            "fields": [
                "ETA_NUM",
                "RHA_NUM",
                "RHS_NUM"
            ],
            "reference": {
                "resource": "T_SSRaaB",
                "fields": [
                    "ETA_NUM",
                    "RHA_NUM",
                    "RHS_NUM"
                ]
            }
        }
    ],
    "history": {
        "dateCreated": "2010",
        "dateDeleted": "",
        "dateMissing": []
    },
    "champ": "Public",
    "observation": ""
}