{
    "fields": [
        {
            "name": "SEQ_NUM",
            "description": "N° séquentiel",
            "type": "string",
            "nomenclature": "-",
            "length": "8.0",
            "format": "default",
            "dateCreated": "2012",
            "dateDeleted": "",
            "dateMissing": [],
            "observation": "",
            "regle_gestion": "",
            "type_oracle": "string"
        },
        {
            "name": "TYP_ART",
            "description": "Type d'enregistrement",
            "type": "string",
            "nomenclature": "-",
            "length": "1.0",
            "format": "default",
            "dateCreated": "2012",
            "dateDeleted": "",
            "dateMissing": [],
            "observation": "",
            "regle_gestion": "",
            "type_oracle": "string"
        },
        {
            "name": "EXE_SOI_DTD",
            "description": "Date de début de la période de facturation",
            "type": "date",
            "nomenclature": "-",
            "length": "",
            "format": "default",
            "dateCreated": "2020",
            "dateDeleted": "",
            "dateMissing": [],
            "observation": "",
            "regle_gestion": "",
            "type_oracle": "date"
        },
        {
            "name": "EXE_SOI_DTF",
            "description": "Date de fin de la période de facturation",
            "type": "date",
            "nomenclature": "-",
            "length": "",
            "format": "default",
            "dateCreated": "2020",
            "dateDeleted": "",
            "dateMissing": [],
            "observation": "",
            "regle_gestion": "",
            "type_oracle": "date"
        },
        {
            "name": "AGE_JOU",
            "description": "Age en jours",
            "type": "integer",
            "nomenclature": "-",
            "length": "5.0",
            "format": "default",
            "dateCreated": "2020",
            "dateDeleted": "",
            "dateMissing": [],
            "observation": "",
            "regle_gestion": "",
            "type_oracle": "number"
        },
        {
            "name": "COD_POST",
            "description": "Code postal",
            "type": "string",
            "nomenclature": "-",
            "length": "5.0",
            "format": "default",
            "dateCreated": "2020",
            "dateDeleted": "",
            "dateMissing": [],
            "observation": "",
            "regle_gestion": "",
            "type_oracle": "string"
        },
        {
            "name": "ETA_NUM",
            "description": "Numéro FINESS",
            "type": "string",
            "nomenclature": "-",
            "length": "9.0",
            "format": "default",
            "dateCreated": "2012",
            "dateDeleted": "",
            "dateMissing": [],
            "observation": "",
            "regle_gestion": "",
            "type_oracle": "string"
        },
        {
            "name": "AGE_ANN",
            "description": "Age",
            "type": "integer",
            "nomenclature": "-",
            "length": "",
            "format": "default",
            "dateCreated": "2014",
            "dateDeleted": "",
            "dateMissing": [],
            "observation": "",
            "regle_gestion": "",
            "type_oracle": "number"
        },
        {
            "name": "COD_SEX",
            "description": "Sexe",
            "type": "string",
            "nomenclature": "-",
            "length": "1.0",
            "format": "default",
            "dateCreated": "2012",
            "dateDeleted": "",
            "dateMissing": [],
            "observation": "",
            "regle_gestion": "",
            "type_oracle": "string"
        },
        {
            "name": "BDI_COD",
            "description": "Code géographique",
            "type": "string",
            "nomenclature": "-",
            "length": "5.0",
            "format": "default",
            "dateCreated": "2012",
            "dateDeleted": "",
            "dateMissing": [],
            "observation": "",
            "regle_gestion": "",
            "type_oracle": "string"
        },
        {
            "name": "BDI_DEP",
            "description": "Code département de résidence",
            "type": "string",
            "nomenclature": "-",
            "length": "2.0",
            "format": "default",
            "dateCreated": "2012",
            "dateDeleted": "",
            "dateMissing": [],
            "observation": "Variable créée par CNAMTS",
            "regle_gestion": "",
            "type_oracle": "string"
        },
        {
            "name": "COD_CIV",
            "description": "Code civilité",
            "type": "string",
            "nomenclature": "-",
            "length": "1.0",
            "format": "default",
            "dateCreated": "2012",
            "dateDeleted": "",
            "dateMissing": [],
            "observation": "",
            "regle_gestion": "",
            "type_oracle": "string"
        },
        {
            "name": "RNG_BEN",
            "description": "Rang de bénéficiaire",
            "type": "string",
            "nomenclature": "-",
            "length": "3.0",
            "format": "default",
            "dateCreated": "2016",
            "dateDeleted": "",
            "dateMissing": [],
            "observation": "",
            "regle_gestion": "",
            "type_oracle": "string"
        },
        {
            "name": "PS_IND",
            "description": "Indicateur du parcours de soins",
            "type": "string",
            "nomenclature": "-",
            "length": "1.0",
            "format": "default",
            "dateCreated": "2012",
            "dateDeleted": "",
            "dateMissing": [],
            "observation": "",
            "regle_gestion": "",
            "type_oracle": "string"
        },
        {
            "name": "OPE_NAT",
            "description": "Nature opération",
            "type": "string",
            "nomenclature": "-",
            "length": "1.0",
            "format": "default",
            "dateCreated": "2012",
            "dateDeleted": "",
            "dateMissing": [],
            "observation": "",
            "regle_gestion": "",
            "type_oracle": "string"
        },
        {
            "name": "NAT_ASS",
            "description": "Nature assurance",
            "type": "string",
            "nomenclature": "-",
            "length": "2.0",
            "format": "default",
            "dateCreated": "2012",
            "dateDeleted": "",
            "dateMissing": [],
            "observation": "",
            "regle_gestion": "",
            "type_oracle": "string"
        },
        {
            "name": "EXO_TM",
            "description": "Justification d'exonération du TM",
            "type": "string",
            "nomenclature": "-",
            "length": "1.0",
            "format": "default",
            "dateCreated": "2012",
            "dateDeleted": "",
            "dateMissing": [],
            "observation": "",
            "regle_gestion": "",
            "type_oracle": "string"
        },
        {
            "name": "SEJ_FAC_AM",
            "description": "Séjour facturable à l’assurance maladie",
            "type": "string",
            "nomenclature": "-",
            "length": "1.0",
            "format": "default",
            "dateCreated": "2012",
            "dateDeleted": "",
            "dateMissing": [],
            "observation": "",
            "regle_gestion": "",
            "type_oracle": "string"
        },
        {
            "name": "NON_SEJ_FAC_AM",
            "description": "Motif de la non facturation à l'assurance maladie",
            "type": "string",
            "nomenclature": "-",
            "length": "1.0",
            "format": "default",
            "dateCreated": "2012",
            "dateDeleted": "",
            "dateMissing": [],
            "observation": "",
            "regle_gestion": "",
            "type_oracle": "string"
        },
        {
            "name": "NOE_RGM",
            "description": "Code Gd régime",
            "type": "string",
            "nomenclature": "-",
            "length": "2.0",
            "format": "default",
            "dateCreated": "2012",
            "dateDeleted": "",
            "dateMissing": [],
            "observation": "",
            "regle_gestion": "",
            "type_oracle": "string"
        },
        {
            "name": "RNG_NAI",
            "description": "Rang de naissance",
            "type": "string",
            "nomenclature": "-",
            "length": "1.0",
            "format": "default",
            "dateCreated": "2016",
            "dateDeleted": "",
            "dateMissing": [],
            "observation": "",
            "regle_gestion": "",
            "type_oracle": "string"
        },
        {
            "name": "PH_BRM",
            "description": "Total Base Remboursement Prestation hospitalière",
            "type": "integer",
            "nomenclature": "-",
            "length": "",
            "format": "default",
            "dateCreated": "2012",
            "dateDeleted": "",
            "dateMissing": [],
            "observation": "",
            "regle_gestion": "",
            "type_oracle": "number"
        },
        {
            "name": "PH_AMO_MNR",
            "description": "Total remboursable AMO Prestation hospitalières",
            "type": "integer",
            "nomenclature": "-",
            "length": "",
            "format": "default",
            "dateCreated": "2012",
            "dateDeleted": "",
            "dateMissing": [],
            "observation": "",
            "regle_gestion": "",
            "type_oracle": "number"
        },
        {
            "name": "HON_MNT",
            "description": "Total honoraire Facturé",
            "type": "integer",
            "nomenclature": "-",
            "length": "",
            "format": "default",
            "dateCreated": "2012",
            "dateDeleted": "",
            "dateMissing": [],
            "observation": "",
            "regle_gestion": "",
            "type_oracle": "number"
        },
        {
            "name": "HON_AM_MNR",
            "description": "Total honoraire remboursable AM",
            "type": "integer",
            "nomenclature": "-",
            "length": "",
            "format": "default",
            "dateCreated": "2012",
            "dateDeleted": "",
            "dateMissing": [],
            "observation": "",
            "regle_gestion": "",
            "type_oracle": "number"
        },
        {
            "name": "PAS_OC_MNT",
            "description": "Total participation assuré avant OC",
            "type": "integer",
            "nomenclature": "-",
            "length": "",
            "format": "default",
            "dateCreated": "2012",
            "dateDeleted": "",
            "dateMissing": [],
            "observation": "",
            "regle_gestion": "",
            "type_oracle": "number"
        },
        {
            "name": "PH_OC_MNR",
            "description": "Total remboursable OC pour les PH",
            "type": "integer",
            "nomenclature": "-",
            "length": "",
            "format": "default",
            "dateCreated": "2012",
            "dateDeleted": "",
            "dateMissing": [],
            "observation": "",
            "regle_gestion": "",
            "type_oracle": "number"
        },
        {
            "name": "HON_OC_MNR",
            "description": "Total remboursable OC pour les honoraires",
            "type": "integer",
            "nomenclature": "-",
            "length": "",
            "format": "default",
            "dateCreated": "2012",
            "dateDeleted": "",
            "dateMissing": [],
            "observation": "",
            "regle_gestion": "",
            "type_oracle": "number"
        },
        {
            "name": "PH_MNT",
            "description": "Montant total facturé pour PH",
            "type": "integer",
            "nomenclature": "-",
            "length": "",
            "format": "default",
            "dateCreated": "2012",
            "dateDeleted": "",
            "dateMissing": [],
            "observation": "",
            "regle_gestion": "",
            "type_oracle": "number"
        },
        {
            "name": "PAT_CMU",
            "description": "Patient bénéficiaire de la CMU",
            "type": "string",
            "nomenclature": "-",
            "length": "1.0",
            "format": "default",
            "dateCreated": "2012",
            "dateDeleted": "",
            "dateMissing": [],
            "observation": "",
            "regle_gestion": "",
            "type_oracle": "string"
        },
        {
            "name": "GES_COD",
            "description": "Code de gestion",
            "type": "string",
            "nomenclature": "-",
            "length": "2.0",
            "format": "default",
            "dateCreated": "2014",
            "dateDeleted": "",
            "dateMissing": [],
            "observation": "",
            "regle_gestion": "",
            "type_oracle": "string"
        },
        {
            "name": "ORG_CPL_NUM",
            "description": "N° d’organisme complémentaire",
            "type": "string",
            "nomenclature": "-",
            "length": "10.0",
            "format": "default",
            "dateCreated": "2015",
            "dateDeleted": "",
            "dateMissing": [],
            "observation": "",
            "regle_gestion": "",
            "type_oracle": "string"
        },
        {
            "name": "NUM_DAT_AT",
            "description": "Numéro accident du travail ou date d’accident de droit commun",
            "type": "string",
            "nomenclature": "-",
            "length": "9.0",
            "format": "default",
            "dateCreated": "2015",
            "dateDeleted": "",
            "dateMissing": [],
            "observation": "",
            "regle_gestion": "",
            "type_oracle": "string"
        },
        {
            "name": "ETA_NUM_GEO",
            "description": "FINESS géographique",
            "type": "string",
            "nomenclature": "-",
            "length": "9.0",
            "format": "default",
            "dateCreated": "2017",
            "dateDeleted": "",
            "dateMissing": [],
            "observation": "",
            "regle_gestion": "",
            "type_oracle": "string"
        },
        {
            "name": "CTR_TYP",
            "description": "Type de contrat souscrit auprès d'un organisme",
            "type": "string",
            "nomenclature": "-",
            "length": "2.0",
            "format": "default",
            "dateCreated": "2017",
            "dateDeleted": "",
            "dateMissing": [],
            "observation": "",
            "regle_gestion": "",
            "type_oracle": "string"
        },
        {
            "name": "EXE_SOI_AMD",
            "description": "Date d'entrée du séjour",
            "type": "date",
            "nomenclature": "-",
            "length": "",
            "format": "default",
            "dateCreated": "2020",
            "dateDeleted": "",
            "dateMissing": [],
            "observation": "Variable créée par CNAM",
            "regle_gestion": "",
            "type_oracle": "date"
        },
        {
            "name": "EXE_SOI_AMF",
            "description": "Date de sortie du séjour",
            "type": "date",
            "nomenclature": "-",
            "length": "",
            "format": "default",
            "dateCreated": "2020",
            "dateDeleted": "",
            "dateMissing": [],
            "observation": "Variable créée par CNAM",
            "regle_gestion": "",
            "type_oracle": "date"
        },
        {
            "name": "POST_DEP",
            "description": "Code postal",
            "type": "string",
            "nomenclature": "-",
            "length": "5.0",
            "format": "default",
            "dateCreated": "2020",
            "dateDeleted": "",
            "dateMissing": [],
            "observation": "Variable créée par CNAM",
            "regle_gestion": "",
            "type_oracle": "string"
        },
        {
            "name": "FIDES_TOP",
            "description": "Valorisé par FIDES",
            "type": "string",
            "nomenclature": "-",
            "length": "1.0",
            "format": "default",
            "dateCreated": "2012",
            "dateDeleted": "2014",
            "dateMissing": [],
            "observation": "",
            "regle_gestion": "",
            "type_oracle": "string"
        },
        {
            "name": "RSF_TYP",
            "description": "Type de format RSF (1 : ancien, 2 : nouveau)",
            "type": "string",
            "nomenclature": "-",
            "length": "1.0",
            "format": "default",
            "dateCreated": "2012",
            "dateDeleted": "2021",
            "dateMissing": [],
            "observation": "",
            "regle_gestion": "",
            "type_oracle": "string"
        },
        {
            "name": "NUM_FAC",
            "description": "Type de format RSF (1 : ancien, 2 : nouveau)",
            "type": "string",
            "nomenclature": "-",
            "length": "3.0",
            "format": "default",
            "dateCreated": "2012",
            "dateDeleted": "2021",
            "dateMissing": [],
            "observation": "",
            "regle_gestion": "",
            "type_oracle": "string"
        },
        {
            "name": "SOR_ANN",
            "description": "Type de format RSF (1 : ancien, 2 : nouveau)",
            "type": "string",
            "nomenclature": "-",
            "length": "4.0",
            "format": "default",
            "dateCreated": "2012",
            "dateDeleted": "2021",
            "dateMissing": [],
            "observation": "",
            "regle_gestion": "",
            "type_oracle": "string"
        },
        {
            "name": "SOR_MOI",
            "description": "Mois de sortie",
            "type": "date",
            "nomenclature": "-",
            "length": "2.0",
            "format": "default",
            "dateCreated": "2012",
            "dateDeleted": "2021",
            "dateMissing": [],
            "observation": "",
            "regle_gestion": "",
            "type_oracle": "string"
        }
    ],
    "missingValues": [
        ""
    ],
    "name": "T_SSRaaFASTC",
    "title": "ACE Entete facture",
    "produit": "PMSI SSR",
    "primaryKey": [
        "ETA_NUM",
        "SEQ_NUM"
    ],
    "history": {
        "dateCreated": "2012",
        "dateDeleted": "",
        "dateMissing": []
    },
    "champ": "Public",
    "observation": ""
}