{
    "fields": [
        {
            "name": "BEN_DCD_AME",
            "description": "Année et mois du décès",
            "type": "string",
            "nomenclature": "-",
            "length": "6.0",
            "format": "default",
            "dateCreated": "2006",
            "dateDeleted": "",
            "dateMissing": "",
            "observation": "",
            "regle_gestion": "",
            "type_oracle": "string"
        },
        {
            "name": "BEN_DCD_DTE",
            "description": "Date du décès",
            "type": "date",
            "nomenclature": "-",
            "length": "",
            "format": "default",
            "dateCreated": "2006",
            "dateDeleted": "",
            "dateMissing": "",
            "observation": "",
            "regle_gestion": "",
            "type_oracle": "date"
        },
        {
            "name": "BEN_IDT_ANO",
            "description": "Identifiant synthétique SNDS",
            "type": "string",
            "nomenclature": "-",
            "length": "18.0",
            "format": "default",
            "dateCreated": "2006",
            "dateDeleted": "",
            "dateMissing": "",
            "observation": "",
            "regle_gestion": "",
            "type_oracle": "string"
        },
        {
            "name": "BEN_IDT_TOP",
            "description": "Top identifiant synthétique SNDS",
            "type": "integer",
            "nomenclature": "-",
            "length": "1.0",
            "format": "default",
            "dateCreated": "2006",
            "dateDeleted": "",
            "dateMissing": "",
            "observation": "",
            "regle_gestion": "",
            "type_oracle": "number"
        },
        {
            "name": "BEN_NIR_ANO",
            "description": "NIR pseudonymisé du bénéficiaire",
            "type": "string",
            "nomenclature": "-",
            "length": "17.0",
            "format": "default",
            "dateCreated": "2006",
            "dateDeleted": "",
            "dateMissing": "",
            "observation": "",
            "regle_gestion": "",
            "type_oracle": "string"
        },
        {
            "name": "CER_LIG_NUM",
            "description": "Numéro de ligne du certificat de décès",
            "type": "integer",
            "nomenclature": "-",
            "length": "1.0",
            "format": "default",
            "dateCreated": "2006",
            "dateDeleted": "",
            "dateMissing": "",
            "observation": "",
            "regle_gestion": "",
            "type_oracle": "number"
        },
        {
            "name": "DCD_IDT_ENC",
            "description": "Identifiant décès encodé",
            "type": "string",
            "nomenclature": "-",
            "length": "64.0",
            "format": "default",
            "dateCreated": "2006",
            "dateDeleted": "",
            "dateMissing": "",
            "observation": "",
            "regle_gestion": "",
            "type_oracle": "string"
        },
        {
            "name": "DCD_IDT_TOP",
            "description": "Top apparié avec IR_BEN_R",
            "type": "integer",
            "nomenclature": "-",
            "length": "1.0",
            "format": "default",
            "dateCreated": "2006",
            "dateDeleted": "",
            "dateMissing": "",
            "observation": "",
            "regle_gestion": "",
            "type_oracle": "number"
        },
        {
            "name": "ECD_CAU_LIB",
            "description": "Libellé de la cause",
            "type": "string",
            "nomenclature": "-",
            "length": "100.0",
            "format": "default",
            "dateCreated": "2006",
            "dateDeleted": "",
            "dateMissing": "",
            "observation": "",
            "regle_gestion": "",
            "type_oracle": "string"
        },
        {
            "name": "ECD_CAU_RNG",
            "description": "Rang de la cause",
            "type": "integer",
            "nomenclature": "-",
            "length": "3.0",
            "format": "default",
            "dateCreated": "2006",
            "dateDeleted": "",
            "dateMissing": "",
            "observation": "",
            "regle_gestion": "",
            "type_oracle": "number"
        },
        {
            "name": "ECD_CIM_COD",
            "description": "Code de la cause",
            "type": "string",
            "nomenclature": "-",
            "length": "4.0",
            "format": "default",
            "dateCreated": "2006",
            "dateDeleted": "",
            "dateMissing": "",
            "observation": "",
            "regle_gestion": "",
            "type_oracle": "string"
        },
        {
            "name": "FLX_PER_ANN",
            "description": "Année du décès",
            "type": "string",
            "nomenclature": "-",
            "length": "4.0",
            "format": "default",
            "dateCreated": "2006",
            "dateDeleted": "",
            "dateMissing": "",
            "observation": "",
            "regle_gestion": "",
            "type_oracle": "string"
        }
    ],
    "missingValues": [
        ""
    ],
    "name": "KI_ECD_R",
    "title": "Table de l’ensemble des causes de décès",
    "produit": "Causes de décès",
    "foreignKeys": [
        {
            "fields": [
                "BEN_IDT_ANO"
            ],
            "reference": {
                "resource": "IR_BEN_R",
                "fields": [
                    "BEN_IDT_ANO"
                ]
            }
        },
        {
            "fields": [
                "BEN_IDT_ANO"
            ],
            "reference": {
                "resource": "IR_IBA_R",
                "fields": [
                    "BEN_IDT_ANO"
                ]
            }
        }
    ],
    "history": {
        "dateCreated": "2006",
        "dateDeleted": "",
        "dateMissing": []
    },
    "champ": "",
    "observation": ""
}