{
    "fields": [
        {
            "name": "ACT_COD",
            "description": "Code de l'activité",
            "type": "string",
            "nomenclature": "-",
            "length": "1.0",
            "format": "default",
            "dateCreated": "2010",
            "dateDeleted": "",
            "dateMissing": [],
            "observation": "",
            "regle_gestion": "",
            "type_oracle": "string"
        },
        {
            "name": "CCAM_COD",
            "description": "Code de l'acte CCAM (hors extension PMSI)",
            "type": "string",
            "nomenclature": "-",
            "length": "7.0",
            "format": "default",
            "dateCreated": "2010",
            "dateDeleted": "",
            "dateMissing": [],
            "observation": "",
            "regle_gestion": "",
            "type_oracle": "string"
        },
        {
            "name": "EXT_PMSI",
            "description": "Extension PMSI",
            "type": "string",
            "nomenclature": "-",
            "length": "2.0",
            "format": "default",
            "dateCreated": "2015",
            "dateDeleted": "",
            "dateMissing": [],
            "observation": "",
            "regle_gestion": "",
            "type_oracle": "string"
        },
        {
            "name": "ETA_NUM_EPMSI",
            "description": "N° FINESS e-PMSI",
            "type": "string",
            "nomenclature": "-",
            "length": "9.0",
            "format": "default",
            "dateCreated": "2010",
            "dateDeleted": "",
            "dateMissing": [],
            "observation": "",
            "regle_gestion": "",
            "type_oracle": "string"
        },
        {
            "name": "ETA_NUM_GEO",
            "description": "Numéro FINESS de l’établissement (code géographique)",
            "type": "string",
            "nomenclature": "-",
            "length": "9.0",
            "format": "default",
            "dateCreated": "2017",
            "dateDeleted": "",
            "dateMissing": [],
            "observation": "remplace la variable ETA_NUM_TWO",
            "regle_gestion": "",
            "type_oracle": "string"
        },
        {
            "name": "EXT_DOC",
            "description": "Extension documentaire",
            "type": "string",
            "nomenclature": "-",
            "length": "1.0",
            "format": "default",
            "dateCreated": "2010",
            "dateDeleted": "",
            "dateMissing": [],
            "observation": "",
            "regle_gestion": "",
            "type_oracle": "string"
        },
        {
            "name": "PHA_COD",
            "description": "Code de la phase",
            "type": "string",
            "nomenclature": "-",
            "length": "1.0",
            "format": "default",
            "dateCreated": "2010",
            "dateDeleted": "",
            "dateMissing": [],
            "observation": "",
            "regle_gestion": "",
            "type_oracle": "string"
        },
        {
            "name": "DEL_DAT_ENT",
            "description": "Délai depuis le début du séjour",
            "type": "string",
            "nomenclature": "-",
            "length": "5.0",
            "format": "default",
            "dateCreated": "2020",
            "dateDeleted": "",
            "dateMissing": [],
            "observation": "",
            "regle_gestion": "",
            "type_oracle": "string"
        },
        {
            "name": "REAL_NBR",
            "description": "Nombre de réalisations",
            "type": "integer",
            "nomenclature": "-",
            "length": "",
            "format": "default",
            "dateCreated": "2010",
            "dateDeleted": "",
            "dateMissing": [],
            "observation": "",
            "regle_gestion": "",
            "type_oracle": "number"
        },
        {
            "name": "RHAD_NUM",
            "description": "N° séquentiel de séjour d'HAD",
            "type": "string",
            "nomenclature": "-",
            "length": "5.0",
            "format": "default",
            "dateCreated": "2010",
            "dateDeleted": "",
            "dateMissing": [],
            "observation": "",
            "regle_gestion": "",
            "type_oracle": "string"
        },
        {
            "name": "SEQ_NUM",
            "description": "N° de la séquence dans le séjour",
            "type": "string",
            "nomenclature": "-",
            "length": "4.0",
            "format": "default",
            "dateCreated": "2010",
            "dateDeleted": "",
            "dateMissing": [],
            "observation": "",
            "regle_gestion": "",
            "type_oracle": "string"
        },
        {
            "name": "SSEQ_NUM",
            "description": "N° de la sous-séquence",
            "type": "string",
            "nomenclature": "-",
            "length": "4.0",
            "format": "default",
            "dateCreated": "2010",
            "dateDeleted": "",
            "dateMissing": [],
            "observation": "",
            "regle_gestion": "",
            "type_oracle": "string"
        },
        {
            "name": "VAL_DAT_SSEQ",
            "description": "Dates de validité de l'acte compatibles avec les dates de la sousséquence",
            "type": "string",
            "nomenclature": "-",
            "length": "1.0",
            "format": "default",
            "dateCreated": "2010",
            "dateDeleted": "",
            "dateMissing": [],
            "observation": "",
            "regle_gestion": "",
            "type_oracle": "string"
        },
        {
            "name": "NBR_ACT",
            "description": "Nombre d'actes réalisés ",
            "type": "string",
            "nomenclature": "-",
            "length": "10.0",
            "format": "default",
            "dateCreated": "2020",
            "dateDeleted": "",
            "dateMissing": [],
            "observation": "",
            "regle_gestion": "",
            "type_oracle": "string"
        },
        {
            "name": "ETA_NUM_TWO",
            "description": "Numéro FINESS de l’établissement (code géographique)",
            "type": "string",
            "nomenclature": "-",
            "length": "9.0",
            "format": "default",
            "dateCreated": "2010",
            "dateDeleted": "2017",
            "dateMissing": [],
            "observation": "",
            "regle_gestion": "",
            "type_oracle": "string"
        },
        {
            "name": "DEL_DEB_SSEQ",
            "description": "Délai depuis le début de la sousséquence",
            "type": "integer",
            "nomenclature": "-",
            "length": "",
            "format": "default",
            "dateCreated": "2010",
            "dateDeleted": "2021",
            "dateMissing": [],
            "observation": "",
            "regle_gestion": "",
            "type_oracle": "number"
        }
    ],
    "missingValues": [
        ""
    ],
    "name": "T_HADaaA",
    "title": "Table des actes",
    "produit": "PMSI HAD",
    "foreignKeys": [
        {
            "fields": [
                "ETA_NUM_EPMSI",
                "RHAD_NUM"
            ],
            "reference": {
                "resource": "T_HADaaB",
                "fields": [
                    "ETA_NUM_EPMSI",
                    "RHAD_NUM"
                ]
            }
        }
    ],
    "history": {
        "dateCreated": "2010",
        "dateDeleted": "",
        "dateMissing": []
    },
    "champ": " Public et Privé",
    "observation": ""
}