{
    "fields": [
        {
            "name": "AGE_ANN",
            "description": "Age",
            "type": "integer",
            "nomenclature": "-",
            "length": "",
            "format": "default",
            "dateCreated": "2014",
            "dateDeleted": "",
            "dateMissing": [],
            "observation": "",
            "regle_gestion": "",
            "type_oracle": "number"
        },
        {
            "name": "CMU_BEN_PAT",
            "description": "Patient bénéficiaire de la CMU",
            "type": "string",
            "nomenclature": "-",
            "length": "1",
            "format": "default",
            "dateCreated": "2012",
            "dateDeleted": "",
            "dateMissing": [],
            "observation": "",
            "regle_gestion": "",
            "type_oracle": "string"
        },
        {
            "name": "COD_CIV",
            "description": "Code civilité ",
            "type": "string",
            "nomenclature": "-",
            "length": "1",
            "format": "default",
            "dateCreated": "2010",
            "dateDeleted": "",
            "dateMissing": [],
            "observation": "",
            "regle_gestion": "",
            "type_oracle": "string"
        },
        {
            "name": "COD_SEX",
            "description": "Sexe",
            "type": "string",
            "nomenclature": "-",
            "length": "1",
            "format": "default",
            "dateCreated": "2010",
            "dateDeleted": "",
            "dateMissing": [],
            "observation": "",
            "regle_gestion": "",
            "type_oracle": "string"
        },
        {
            "name": "CON_TYP",
            "description": "Type de contrat souscrit auprès d'un organisme complémentaire",
            "type": "string",
            "nomenclature": "-",
            "length": "2",
            "format": "default",
            "dateCreated": "2010",
            "dateDeleted": "",
            "dateMissing": [],
            "observation": "",
            "regle_gestion": "",
            "type_oracle": "string"
        },
        {
            "name": "ETA_NUM_EPMSI",
            "description": "N° FINESS e-PMSI",
            "type": "string",
            "nomenclature": "-",
            "length": "9",
            "format": "default",
            "dateCreated": "2010",
            "dateDeleted": "",
            "dateMissing": [],
            "observation": "",
            "regle_gestion": "",
            "type_oracle": "string"
        },
        {
            "name": "ETA_NUM_GEO",
            "description": "Numéro FINESS  géographique",
            "type": "string",
            "nomenclature": "-",
            "length": "9",
            "format": "default",
            "dateCreated": "2017",
            "dateDeleted": "",
            "dateMissing": [],
            "observation": "remplace la variable ETA_NUM_TWO",
            "regle_gestion": "",
            "type_oracle": "string"
        },
        {
            "name": "EXO_TM",
            "description": "Justification d'exonération du TM",
            "type": "string",
            "nomenclature": "-",
            "length": "1",
            "format": "default",
            "dateCreated": "2010",
            "dateDeleted": "",
            "dateMissing": [],
            "observation": "",
            "regle_gestion": "",
            "type_oracle": "string"
        },
        {
            "name": "COD_PEC",
            "description": "Code de prise en charge",
            "type": "string",
            "nomenclature": "-",
            "length": "1",
            "format": "default",
            "dateCreated": "2017",
            "dateDeleted": "",
            "dateMissing": [],
            "observation": "",
            "regle_gestion": "",
            "type_oracle": "string"
        },
        {
            "name": "EXE_SOI_DTD",
            "description": "Date d'entrée du séjour",
            "type": "date",
            "nomenclature": "-",
            "length": "6",
            "format": "default",
            "dateCreated": "2020",
            "dateDeleted": "",
            "dateMissing": [],
            "observation": "",
            "regle_gestion": "",
            "type_oracle": "date"
        },
        {
            "name": "EXE_SOI_DTF",
            "description": "Date de sortie du séjour",
            "type": "date",
            "nomenclature": "-",
            "length": "6",
            "format": "default",
            "dateCreated": "2020",
            "dateDeleted": "",
            "dateMissing": [],
            "observation": "",
            "regle_gestion": "",
            "type_oracle": "date"
        },
        {
            "name": "AGE_JOU",
            "description": "Age en jours",
            "type": "integer",
            "nomenclature": "-",
            "length": "5",
            "format": "default",
            "dateCreated": "2020",
            "dateDeleted": "",
            "dateMissing": [],
            "observation": "",
            "regle_gestion": "",
            "type_oracle": ""
        },
        {
            "name": "COD_POST",
            "description": "Code postal",
            "type": "string",
            "nomenclature": "-",
            "length": "5",
            "format": "default",
            "dateCreated": "2020",
            "dateDeleted": "",
            "dateMissing": [],
            "observation": "",
            "regle_gestion": "",
            "type_oracle": "string"
        },
        {
            "name": "BDI_COD",
            "description": "Code géographique",
            "type": "string",
            "nomenclature": "-",
            "length": "5",
            "format": "default",
            "dateCreated": "2020",
            "dateDeleted": "",
            "dateMissing": [],
            "observation": "",
            "regle_gestion": "",
            "type_oracle": "string"
        },
        {
            "name": "FAC_ETL",
            "description": "Etat de liquidation de la facture",
            "type": "string",
            "nomenclature": "-",
            "length": "1",
            "format": "default",
            "dateCreated": "2010",
            "dateDeleted": "",
            "dateMissing": [],
            "observation": "",
            "regle_gestion": "",
            "type_oracle": "string"
        },
        {
            "name": "FAC_NUM",
            "description": "N° séquentiel de facture (idem RAPSS)",
            "type": "string",
            "nomenclature": "-",
            "length": "5",
            "format": "default",
            "dateCreated": "2010",
            "dateDeleted": "",
            "dateMissing": [],
            "observation": "",
            "regle_gestion": "",
            "type_oracle": "string"
        },
        {
            "name": "GES_COD",
            "description": "Code gestion",
            "type": "string",
            "nomenclature": "-",
            "length": "2",
            "format": "default",
            "dateCreated": "2017",
            "dateDeleted": "",
            "dateMissing": [],
            "observation": "",
            "regle_gestion": "",
            "type_oracle": "string"
        },
        {
            "name": "HON_AM_MNR",
            "description": "Total honoraire remboursable AM",
            "type": "integer",
            "nomenclature": "-",
            "length": "",
            "format": "default",
            "dateCreated": "2010",
            "dateDeleted": "",
            "dateMissing": [],
            "observation": "Attention les montants sont des montants remboursés",
            "regle_gestion": "",
            "type_oracle": "number"
        },
        {
            "name": "HON_MNT",
            "description": "Total honoraire Facturé",
            "type": "integer",
            "nomenclature": "-",
            "length": "",
            "format": "default",
            "dateCreated": "2010",
            "dateDeleted": "",
            "dateMissing": [],
            "observation": "",
            "regle_gestion": "",
            "type_oracle": "number"
        },
        {
            "name": "HON_OC_MNR",
            "description": "Total remboursable OC pour les honoraires",
            "type": "integer",
            "nomenclature": "-",
            "length": "",
            "format": "default",
            "dateCreated": "2010",
            "dateDeleted": "",
            "dateMissing": [],
            "observation": "Attention les montants sont des montants remboursés",
            "regle_gestion": "",
            "type_oracle": "number"
        },
        {
            "name": "NAT_ASS",
            "description": "Nature assurance",
            "type": "string",
            "nomenclature": "-",
            "length": "2",
            "format": "default",
            "dateCreated": "2010",
            "dateDeleted": "",
            "dateMissing": [],
            "observation": "",
            "regle_gestion": "",
            "type_oracle": "string"
        },
        {
            "name": "NOE_RGM",
            "description": "Code Gd régime",
            "type": "string",
            "nomenclature": "-",
            "length": "2",
            "format": "default",
            "dateCreated": "2010",
            "dateDeleted": "",
            "dateMissing": [],
            "observation": "",
            "regle_gestion": "",
            "type_oracle": "string"
        },
        {
            "name": "OPE_NAT",
            "description": "Nature opération",
            "type": "string",
            "nomenclature": "-",
            "length": "1",
            "format": "default",
            "dateCreated": "2010",
            "dateDeleted": "",
            "dateMissing": [],
            "observation": "",
            "regle_gestion": "",
            "type_oracle": "string"
        },
        {
            "name": "PAS_OC_MNT",
            "description": "Total participation assuré avant OC",
            "type": "integer",
            "nomenclature": "-",
            "length": "",
            "format": "default",
            "dateCreated": "2010",
            "dateDeleted": "",
            "dateMissing": [],
            "observation": "",
            "regle_gestion": "",
            "type_oracle": "number"
        },
        {
            "name": "PH_AMO_MNR",
            "description": "Total remboursable AMO Prestation hospitalières",
            "type": "integer",
            "nomenclature": "-",
            "length": "",
            "format": "default",
            "dateCreated": "2010",
            "dateDeleted": "",
            "dateMissing": [],
            "observation": "Attention les montants sont des montants remboursés",
            "regle_gestion": "",
            "type_oracle": "number"
        },
        {
            "name": "PH_BRM",
            "description": "Total Base Remboursement Prestation hospitalière",
            "type": "integer",
            "nomenclature": "-",
            "length": "",
            "format": "default",
            "dateCreated": "2010",
            "dateDeleted": "",
            "dateMissing": [],
            "observation": "",
            "regle_gestion": "",
            "type_oracle": "number"
        },
        {
            "name": "PH_MNT",
            "description": "Montant total facturé pour  PH",
            "type": "integer",
            "nomenclature": "-",
            "length": "",
            "format": "default",
            "dateCreated": "2010",
            "dateDeleted": "",
            "dateMissing": [],
            "observation": "",
            "regle_gestion": "",
            "type_oracle": "number"
        },
        {
            "name": "PH_OC_MNR",
            "description": "Total remboursable OC pour les PH",
            "type": "integer",
            "nomenclature": "-",
            "length": "",
            "format": "default",
            "dateCreated": "2010",
            "dateDeleted": "",
            "dateMissing": [],
            "observation": "Attention les montants sont des montants remboursés",
            "regle_gestion": "",
            "type_oracle": "number"
        },
        {
            "name": "RHAD_NUM",
            "description": "Numéro séquentiel d'entrée (idem RAPSS)",
            "type": "string",
            "nomenclature": "-",
            "length": "5",
            "format": "default",
            "dateCreated": "2010",
            "dateDeleted": "",
            "dateMissing": [],
            "observation": "",
            "regle_gestion": "",
            "type_oracle": "string"
        },
        {
            "name": "TYP_ART",
            "description": "Type d'enregistrement",
            "type": "string",
            "nomenclature": "-",
            "length": "1",
            "format": "default",
            "dateCreated": "2010",
            "dateDeleted": "",
            "dateMissing": [],
            "observation": "",
            "regle_gestion": "",
            "type_oracle": "string"
        },
        {
            "name": "ORG_CPL_NUM",
            "description": "N° d’organisme complémentaire",
            "type": "string",
            "nomenclature": "-",
            "length": "10",
            "format": "default",
            "dateCreated": "2015",
            "dateDeleted": "",
            "dateMissing": [],
            "observation": "",
            "regle_gestion": "",
            "type_oracle": "string"
        },
        {
            "name": "NUM_DAT_AT",
            "description": "Numéro accident du travail ou date d’accident de droit commun",
            "type": "string",
            "nomenclature": "-",
            "length": "9",
            "format": "default",
            "dateCreated": "2015",
            "dateDeleted": "",
            "dateMissing": [],
            "observation": "",
            "regle_gestion": "",
            "type_oracle": "string"
        },
        {
            "name": "RNG_BEN",
            "description": "Rang de bénéficiaire",
            "type": "string",
            "nomenclature": "-",
            "length": "3",
            "format": "default",
            "dateCreated": "2016",
            "dateDeleted": "",
            "dateMissing": [],
            "observation": "",
            "regle_gestion": "",
            "type_oracle": "string"
        },
        {
            "name": "RNG_NAI",
            "description": "Rang de naissance",
            "type": "string",
            "nomenclature": "-",
            "length": "1",
            "format": "default",
            "dateCreated": "2016",
            "dateDeleted": "",
            "dateMissing": [],
            "observation": "",
            "regle_gestion": "",
            "type_oracle": "string"
        },
        {
            "name": "BDI_DEP",
            "description": "Commune de résidence",
            "type": "string",
            "nomenclature": "-",
            "length": "2",
            "format": "default",
            "dateCreated": "2020",
            "dateDeleted": "",
            "dateMissing": [],
            "observation": "Générée par ADGP",
            "regle_gestion": "",
            "type_oracle": "string"
        },
        {
            "name": "EXE_SOI_AMD",
            "description": "Date d'entrée du séjour",
            "type": "string",
            "nomenclature": "-",
            "length": "6",
            "format": "default",
            "dateCreated": "2020",
            "dateDeleted": "",
            "dateMissing": [],
            "observation": "Générée par ADGP",
            "regle_gestion": "",
            "type_oracle": "string"
        },
        {
            "name": "EXE_SOI_AMF",
            "description": "Date de sortie du séjour",
            "type": "string",
            "nomenclature": "-",
            "length": "6",
            "format": "default",
            "dateCreated": "2020",
            "dateDeleted": "",
            "dateMissing": [],
            "observation": "Générée par ADGP",
            "regle_gestion": "",
            "type_oracle": "string"
        },
        {
            "name": "POST_DEP",
            "description": "Code postal",
            "type": "string",
            "nomenclature": "-",
            "length": "2",
            "format": "default",
            "dateCreated": "2020",
            "dateDeleted": "",
            "dateMissing": [],
            "observation": "Générée par ADGP",
            "regle_gestion": "",
            "type_oracle": "string"
        },
        {
            "name": "COD_LES",
            "description": "Code incation specialite pha inscrites sur liste en sus",
            "type": "string",
            "nomenclature": "-",
            "length": "7",
            "format": "default",
            "dateCreated": "2020",
            "dateDeleted": "",
            "dateMissing": [],
            "observation": "",
            "regle_gestion": "",
            "type_oracle": "string"
        },
        {
            "name": "ETA_NUM_TWO",
            "description": "Numéro FINESS de l’établissement (site géographique)",
            "type": "string",
            "nomenclature": "-",
            "length": "9",
            "format": "default",
            "dateCreated": "2010",
            "dateDeleted": "2017",
            "dateMissing": [],
            "observation": "",
            "regle_gestion": "",
            "type_oracle": "string"
        },
        {
            "name": "ENT_ANN",
            "description": "Année de la date d'entrée",
            "type": "string",
            "nomenclature": "-",
            "length": "4",
            "format": "default",
            "dateCreated": "2010",
            "dateDeleted": "2021",
            "dateMissing": [],
            "observation": "",
            "regle_gestion": "",
            "type_oracle": "string"
        },
        {
            "name": "ENT_MOI",
            "description": "Mois de la date d'entrée",
            "type": "date",
            "nomenclature": "-",
            "length": "2",
            "format": "default",
            "dateCreated": "2010",
            "dateDeleted": "2021",
            "dateMissing": [],
            "observation": "",
            "regle_gestion": "",
            "type_oracle": "string"
        },
        {
            "name": "SOR_ANN",
            "description": "Année de la date de sortie",
            "type": "string",
            "nomenclature": "-",
            "length": "4",
            "format": "default",
            "dateCreated": "2010",
            "dateDeleted": "2021",
            "dateMissing": [],
            "observation": "",
            "regle_gestion": "",
            "type_oracle": "string"
        },
        {
            "name": "SOR_MOI",
            "description": "Mois de la date de sortie",
            "type": "date",
            "nomenclature": "-",
            "length": "2",
            "format": "default",
            "dateCreated": "2010",
            "dateDeleted": "2021",
            "dateMissing": [],
            "observation": "",
            "regle_gestion": "",
            "type_oracle": "string"
        }
    ],
    "missingValues": [
        ""
    ],
    "name": "T_HADaaFA",
    "title": "TableFA : Table des RSFA début de facture des établissements ex-OQN",
    "produit": "PMSI HAD",
    "foreignKeys": [
        {
            "fields": [
                "ETA_NUM_EPMSI",
                "RHAD_NUM"
            ],
            "reference": {
                "resource": "T_HADaaB",
                "fields": [
                    "ETA_NUM_EPMSI",
                    "RHAD_NUM"
                ]
            }
        }
    ],
    "history": {
        "dateCreated": "2014",
        "dateDeleted": "",
        "dateMissing": []
    },
    "champ": " Public et Privé",
    "observation": ""
}