{
    "fields": [
        {
            "name": "ACH_PRI_ADM",
            "description": "Prix d'achat multiplié par le nombre administré",
            "type": "number",
            "nomenclature": "-",
            "length": "10,3",
            "format": "default",
            "dateCreated": "2012",
            "dateDeleted": "",
            "dateMissing": [],
            "observation": "",
            "regle_gestion": "",
            "type_oracle": "number"
        },
        {
            "name": "ADM_ANN",
            "description": "Année de la date d'administration",
            "type": "string",
            "nomenclature": "-",
            "length": "4",
            "format": "default",
            "dateCreated": "2012",
            "dateDeleted": "",
            "dateMissing": [],
            "observation": "",
            "regle_gestion": "",
            "type_oracle": "string"
        },
        {
            "name": "ADM_MOIS",
            "description": "Mois de la date d'administration",
            "type": "date",
            "nomenclature": "-",
            "length": "2",
            "format": "default",
            "dateCreated": "2012",
            "dateDeleted": "",
            "dateMissing": [],
            "observation": "",
            "regle_gestion": "",
            "type_oracle": "string"
        },
        {
            "name": "ADM_NBR",
            "description": "Nombre administré éventuellement fractionnaire",
            "type": "number",
            "nomenclature": "-",
            "length": "10,3",
            "format": "default",
            "dateCreated": "2012",
            "dateDeleted": "",
            "dateMissing": [],
            "observation": "",
            "regle_gestion": "",
            "type_oracle": "number"
        },
        {
            "name": "ANN",
            "description": "Année période",
            "type": "string",
            "nomenclature": "-",
            "length": "4",
            "format": "default",
            "dateCreated": "2012",
            "dateDeleted": "",
            "dateMissing": [],
            "observation": "",
            "regle_gestion": "",
            "type_oracle": "string"
        },
        {
            "name": "DAT_DELAI",
            "description": "Délai entre la date d’entrée du séjour et la date de dispensation",
            "type": "integer",
            "nomenclature": "-",
            "length": "4",
            "format": "default",
            "dateCreated": "2012",
            "dateDeleted": "",
            "dateMissing": [],
            "observation": "",
            "regle_gestion": "",
            "type_oracle": "number"
        },
        {
            "name": "ETA_NUM",
            "description": "N° FINESS e-PMSI",
            "type": "string",
            "nomenclature": "-",
            "length": "9",
            "format": "default",
            "dateCreated": "2012",
            "dateDeleted": "",
            "dateMissing": [],
            "observation": "",
            "regle_gestion": "",
            "type_oracle": "string"
        },
        {
            "name": "ETA_NUM_ENT",
            "description": "N° FINESS du fichier d'entrée",
            "type": "string",
            "nomenclature": "-",
            "length": "9",
            "format": "default",
            "dateCreated": "2017",
            "dateDeleted": "",
            "dateMissing": [],
            "observation": "",
            "regle_gestion": "",
            "type_oracle": "string"
        },
        {
            "name": "INI_VAL_PRS",
            "description": "Validation initiale de la prescription par un centre de référence ou de compétence",
            "type": "string",
            "nomenclature": "-",
            "length": "1",
            "format": "default",
            "dateCreated": "2012",
            "dateDeleted": "",
            "dateMissing": [],
            "observation": "",
            "regle_gestion": "",
            "type_oracle": "string"
        },
        {
            "name": "MOI",
            "description": "N° période (mois)",
            "type": "date",
            "nomenclature": "-",
            "length": "2",
            "format": "default",
            "dateCreated": "2012",
            "dateDeleted": "",
            "dateMissing": [],
            "observation": "",
            "regle_gestion": "",
            "type_oracle": "string"
        },
        {
            "name": "PRS_TYP",
            "description": "Type de prestation",
            "type": "string",
            "nomenclature": "-",
            "length": "2",
            "format": "default",
            "dateCreated": "2012",
            "dateDeleted": "",
            "dateMissing": [],
            "observation": "",
            "regle_gestion": "",
            "type_oracle": "string"
        },
        {
            "name": "RSA_NUM",
            "description": "N° d'index du RSA",
            "type": "string",
            "nomenclature": "-",
            "length": "10",
            "format": "default",
            "dateCreated": "2012",
            "dateDeleted": "",
            "dateMissing": [],
            "observation": "",
            "regle_gestion": "",
            "type_oracle": "string"
        },
        {
            "name": "SEJ_NBR",
            "description": "Nombre de séjours impliqués",
            "type": "integer",
            "nomenclature": "-",
            "length": "6",
            "format": "default",
            "dateCreated": "2012",
            "dateDeleted": "",
            "dateMissing": [],
            "observation": "",
            "regle_gestion": "",
            "type_oracle": "number"
        },
        {
            "name": "TOP_UCD_AUTO",
            "description": "Top transcodage UCD13 auto",
            "type": "string",
            "nomenclature": "-",
            "length": "1",
            "format": "default",
            "dateCreated": "2015",
            "dateDeleted": "",
            "dateMissing": [],
            "observation": "",
            "regle_gestion": "",
            "type_oracle": "string"
        },
        {
            "name": "UCD_UCD_COD",
            "description": "Code UCD",
            "type": "string",
            "nomenclature": "-",
            "length": "13",
            "format": "default",
            "dateCreated": "2012",
            "dateDeleted": "",
            "dateMissing": [],
            "observation": "Transmise par ATIH sur 13 caractères à partir de 2015 (créée par CNAM avt)",
            "regle_gestion": "",
            "type_oracle": "string"
        },
        {
            "name": "COD_LES",
            "description": "Code indication des spécialités pharmaceutiques inscrites sur la liste en sus",
            "type": "string",
            "nomenclature": "-",
            "length": "7",
            "format": "default",
            "dateCreated": "2019",
            "dateDeleted": "",
            "dateMissing": [],
            "observation": "",
            "regle_gestion": "",
            "type_oracle": "string"
        },
        {
            "name": "UCD_COD",
            "description": "Code UCD",
            "type": "string",
            "nomenclature": "-",
            "length": "",
            "format": "default",
            "dateCreated": "2012",
            "dateDeleted": "2015",
            "dateMissing": [],
            "observation": "",
            "regle_gestion": "",
            "type_oracle": "string"
        }
    ],
    "missingValues": [
        ""
    ],
    "name": "T_MCOaaMEDATU",
    "title": "Fich comp médicament soumis à autorisation temporaire d'utilisation",
    "produit": "PMSI MCO",
    "foreignKeys": [
        {
            "fields": [
                "ETA_NUM",
                "RSA_NUM"
            ],
            "reference": {
                "resource": "T_MCOaaB",
                "fields": [
                    "ETA_NUM",
                    "RSA_NUM"
                ]
            }
        }
    ],
    "history": {
        "dateCreated": "2012",
        "dateDeleted": "",
        "dateMissing": []
    },
    "champ": "Public et Privé",
    "observation": "nan"
}