{
    "fields": [
        {
            "name": "NBR_CONS_000_030",
            "description": "Nombre de consultations d'une durée inférieure à 30 minutes",
            "type": "integer",
            "nomenclature": "-",
            "length": "10",
            "format": "default",
            "dateCreated": "2016",
            "dateDeleted": "",
            "dateMissing": [],
            "observation": "",
            "regle_gestion": "",
            "type_oracle": "number"
        },
        {
            "name": "NBR_CONS_030_060",
            "description": "Nombre de consultations d'une durée comprise entre 30 et 60 minutes",
            "type": "integer",
            "nomenclature": "-",
            "length": "10",
            "format": "default",
            "dateCreated": "2016",
            "dateDeleted": "",
            "dateMissing": [],
            "observation": "",
            "regle_gestion": "",
            "type_oracle": "number"
        },
        {
            "name": "NBR_CONS_060_120",
            "description": "Nombre de consultations d'une durée comprise entre 60 et 120 minutes",
            "type": "integer",
            "nomenclature": "-",
            "length": "10",
            "format": "default",
            "dateCreated": "2016",
            "dateDeleted": "",
            "dateMissing": [],
            "observation": "",
            "regle_gestion": "",
            "type_oracle": "number"
        },
        {
            "name": "NBR_CONS_120_SUP",
            "description": "Nombre de consultations d'une durée supérieure à 120 minutes",
            "type": "integer",
            "nomenclature": "-",
            "length": "10",
            "format": "default",
            "dateCreated": "2016",
            "dateDeleted": "",
            "dateMissing": [],
            "observation": "",
            "regle_gestion": "",
            "type_oracle": "number"
        },
        {
            "name": "NBR_CONS_ASS_SOC",
            "description": "·         Dont Nombre de consultations avec participation d'une assistante sociale",
            "type": "integer",
            "nomenclature": "-",
            "length": "10",
            "format": "default",
            "dateCreated": "2016",
            "dateDeleted": "",
            "dateMissing": [],
            "observation": "",
            "regle_gestion": "",
            "type_oracle": "number"
        },
        {
            "name": "NBR_CONS_AUT_MED",
            "description": "·         Dont Nombre de consultations avec participation d'un autre médecin",
            "type": "integer",
            "nomenclature": "-",
            "length": "10",
            "format": "default",
            "dateCreated": "2016",
            "dateDeleted": "",
            "dateMissing": [],
            "observation": "",
            "regle_gestion": "",
            "type_oracle": "number"
        },
        {
            "name": "NBR_CONS_AUT_PRO",
            "description": "·         Dont Nombre de consultations avec participation d'un autre professionnel (hors professionnel de santé)",
            "type": "integer",
            "nomenclature": "-",
            "length": "10",
            "format": "default",
            "dateCreated": "2016",
            "dateDeleted": "",
            "dateMissing": [],
            "observation": "",
            "regle_gestion": "",
            "type_oracle": "number"
        },
        {
            "name": "NBR_CONS_AUT_PS",
            "description": "·         Dont Nombre de consultations avec participation d'un autre professionnel de santé",
            "type": "integer",
            "nomenclature": "-",
            "length": "10",
            "format": "default",
            "dateCreated": "2016",
            "dateDeleted": "",
            "dateMissing": [],
            "observation": "",
            "regle_gestion": "",
            "type_oracle": "number"
        },
        {
            "name": "NBR_CONS_INFIRM",
            "description": "·         Dont Nombre de consultations avec participation d'un infirmier",
            "type": "integer",
            "nomenclature": "-",
            "length": "10",
            "format": "default",
            "dateCreated": "2016",
            "dateDeleted": "",
            "dateMissing": [],
            "observation": "",
            "regle_gestion": "",
            "type_oracle": "number"
        },
        {
            "name": "NBR_CONS_PHARMA",
            "description": "·         Dont Nombre de consultations avec participation d'un pharmacien",
            "type": "integer",
            "nomenclature": "-",
            "length": "10",
            "format": "default",
            "dateCreated": "2016",
            "dateDeleted": "",
            "dateMissing": [],
            "observation": "",
            "regle_gestion": "",
            "type_oracle": "number"
        },
        {
            "name": "NBR_CONS_PLURI_PRO",
            "description": "Nombre total de consultations avec participation d'un autre intervenant",
            "type": "integer",
            "nomenclature": "-",
            "length": "10",
            "format": "default",
            "dateCreated": "2016",
            "dateDeleted": "",
            "dateMissing": [],
            "observation": "",
            "regle_gestion": "",
            "type_oracle": "number"
        },
        {
            "name": "NBR_CONS_PPCO",
            "description": "Nombre total de consultations médicales pour primo-prescription de traitement de chimiothérapie par voie orale pendant l’année",
            "type": "integer",
            "nomenclature": "-",
            "length": "10",
            "format": "default",
            "dateCreated": "2016",
            "dateDeleted": "",
            "dateMissing": [],
            "observation": "",
            "regle_gestion": "",
            "type_oracle": "number"
        },
        {
            "name": "NBR_CONS_PPCO_IV",
            "description": "·         Dont nb de consultations ayant également donné lieu à une prescription de chimiothérapie par voie IV",
            "type": "integer",
            "nomenclature": "-",
            "length": "10",
            "format": "default",
            "dateCreated": "2016",
            "dateDeleted": "",
            "dateMissing": [],
            "observation": "",
            "regle_gestion": "",
            "type_oracle": "number"
        },
        {
            "name": "NBR_CONS_PPCO_SC",
            "description": "·         Dont nb de consultations ayant également donné lieu à une prescription de chimiothérapie sous-cutanée",
            "type": "integer",
            "nomenclature": "-",
            "length": "10",
            "format": "default",
            "dateCreated": "2016",
            "dateDeleted": "",
            "dateMissing": [],
            "observation": "",
            "regle_gestion": "",
            "type_oracle": "number"
        },
        {
            "name": "NBR_PAT_PPCO",
            "description": "Nombre total de patients ayant eu une consultation médicale de primo-prescription de traitement de chimiothérapie par voie orale pendant l’année",
            "type": "integer",
            "nomenclature": "-",
            "length": "10",
            "format": "default",
            "dateCreated": "2016",
            "dateDeleted": "",
            "dateMissing": [],
            "observation": "",
            "regle_gestion": "",
            "type_oracle": "number"
        },
        {
            "name": "NBR_PAT_PPCO_1ER_TRAIT",
            "description": "·         Le nombre de patients pour lesquels il s’agit d’un premier traitement de chimiothérapie orale",
            "type": "integer",
            "nomenclature": "-",
            "length": "10",
            "format": "default",
            "dateCreated": "2016",
            "dateDeleted": "",
            "dateMissing": [],
            "observation": "",
            "regle_gestion": "",
            "type_oracle": "number"
        },
        {
            "name": "NBR_PAT_PPCO_INF_1AN",
            "description": "·         Le nombre de patients vus pour la première fois cette année",
            "type": "integer",
            "nomenclature": "-",
            "length": "10",
            "format": "default",
            "dateCreated": "2016",
            "dateDeleted": "",
            "dateMissing": [],
            "observation": "",
            "regle_gestion": "",
            "type_oracle": "number"
        },
        {
            "name": "NBR_PAT_PPCO_SUP_1AN",
            "description": "·         Le nombre de patients suivis pour un traitement du cancer depuis plus d’un an",
            "type": "integer",
            "nomenclature": "-",
            "length": "10",
            "format": "default",
            "dateCreated": "2016",
            "dateDeleted": "",
            "dateMissing": [],
            "observation": "",
            "regle_gestion": "",
            "type_oracle": "number"
        },
        {
            "name": "NBR_PAT_PPCO_SUP_5AN",
            "description": "·         Le nombre de patient suivis pour un traitement du cancer depuis plus de 5 ans",
            "type": "integer",
            "nomenclature": "-",
            "length": "10",
            "format": "default",
            "dateCreated": "2016",
            "dateDeleted": "",
            "dateMissing": [],
            "observation": "",
            "regle_gestion": "",
            "type_oracle": "number"
        },
        {
            "name": "NBR_TOT_PAT",
            "description": "File active de patients ayant un traitement du cancer par chimiothérapie orale",
            "type": "integer",
            "nomenclature": "-",
            "length": "10",
            "format": "default",
            "dateCreated": "2016",
            "dateDeleted": "",
            "dateMissing": [],
            "observation": "",
            "regle_gestion": "",
            "type_oracle": "number"
        },
        {
            "name": "ANN_MOI",
            "description": "Année+Mois",
            "type": "date",
            "nomenclature": "-",
            "length": "6",
            "format": "default",
            "dateCreated": "2016",
            "dateDeleted": "",
            "dateMissing": [],
            "observation": "",
            "regle_gestion": "",
            "type_oracle": "string"
        },
        {
            "name": "ETA_NUM",
            "description": "Numéro FINESS ePMSI",
            "type": "string",
            "nomenclature": "-",
            "length": "9",
            "format": "default",
            "dateCreated": "2016",
            "dateDeleted": "",
            "dateMissing": [],
            "observation": "",
            "regle_gestion": "",
            "type_oracle": "string"
        },
        {
            "name": "FIC_TYP",
            "description": "Type de fichier",
            "type": "string",
            "nomenclature": "-",
            "length": "3",
            "format": "default",
            "dateCreated": "2016",
            "dateDeleted": "",
            "dateMissing": [],
            "observation": "",
            "regle_gestion": "",
            "type_oracle": "string"
        }
    ],
    "missingValues": [
        ""
    ],
    "name": "T_MCOaaSUP_PPCO",
    "title": "Fich sup Primo prescription de chimiothérapie orale",
    "produit": "PMSI MCO",
    "foreignKeys": [
        {
            "fields": [
                "ETA_NUM"
            ],
            "reference": {
                "resource": "T_MCOaaE",
                "fields": [
                    "ETA_NUM"
                ]
            }
        }
    ],
    "history": {
        "dateCreated": "2016",
        "dateDeleted": "",
        "dateMissing": []
    },
    "champ": "Public",
    "observation": "nan"
}