{
    "fields": [
        {
            "name": "ANN_MOI",
            "description": "Mois et année",
            "type": "date",
            "nomenclature": "-",
            "length": "",
            "format": "default",
            "dateCreated": "2007",
            "dateDeleted": "2009",
            "dateMissing": [],
            "observation": "",
            "regle_gestion": "",
            "type_oracle": "string"
        },
        {
            "name": "AUT_TYP",
            "description": "Type d'autorisation",
            "type": "string",
            "nomenclature": "-",
            "length": "",
            "format": "default",
            "dateCreated": "2007",
            "dateDeleted": "2009",
            "dateMissing": [],
            "observation": "",
            "regle_gestion": "",
            "type_oracle": "string"
        },
        {
            "name": "ETA_NUM",
            "description": "Numéro FINESS e-PMSI",
            "type": "string",
            "nomenclature": "-",
            "length": "",
            "format": "default",
            "dateCreated": "2007",
            "dateDeleted": "2009",
            "dateMissing": [],
            "observation": "",
            "regle_gestion": "",
            "type_oracle": "string"
        },
        {
            "name": "ETA_NUM_GEO",
            "description": "Premier numéro FINESS géographique",
            "type": "string",
            "nomenclature": "-",
            "length": "",
            "format": "default",
            "dateCreated": "2007",
            "dateDeleted": "2009",
            "dateMissing": [],
            "observation": "",
            "regle_gestion": "",
            "type_oracle": "string"
        },
        {
            "name": "FIC_TYP",
            "description": "Type de fichier",
            "type": "string",
            "nomenclature": "-",
            "length": "",
            "format": "default",
            "dateCreated": "2007",
            "dateDeleted": "2009",
            "dateMissing": [],
            "observation": "",
            "regle_gestion": "",
            "type_oracle": "string"
        },
        {
            "name": "NBR_HOS",
            "description": "Nombres d'hospitalisations",
            "type": "string",
            "nomenclature": "-",
            "length": "",
            "format": "default",
            "dateCreated": "2007",
            "dateDeleted": "2009",
            "dateMissing": [],
            "observation": "",
            "regle_gestion": "",
            "type_oracle": "string"
        },
        {
            "name": "NBR_PAS",
            "description": "Nombre de passages total",
            "type": "string",
            "nomenclature": "-",
            "length": "",
            "format": "default",
            "dateCreated": "2007",
            "dateDeleted": "2009",
            "dateMissing": [],
            "observation": "",
            "regle_gestion": "",
            "type_oracle": "string"
        }
    ],
    "missingValues": [
        ""
    ],
    "name": "T_SUPaaATU",
    "title": "Passage aux urgences (extension de fichier .atu)",
    "produit": "PMSI MCO",
    "foreignKeys": [
        {
            "fields": [
                "ETA_NUM"
            ],
            "reference": {
                "resource": "T_MCOaaE",
                "fields": [
                    "ETA_NUM"
                ]
            }
        }
    ],
    "history": {
        "dateCreated": "2007",
        "dateDeleted": "",
        "dateMissing": []
    },
    "champ": "Public",
    "observation": "nan"
}