{
    "fields": [
        {
            "name": "BEN_IDT_ANO",
            "description": "Identifiant bénéficiaire anonymisé",
            "type": "string",
            "nomenclature": "-",
            "length": "18.0",
            "format": "default",
            "dateCreated": "",
            "dateDeleted": "",
            "dateMissing": "",
            "observation": "",
            "regle_gestion": "",
            "type_oracle": "string"
        },
        {
            "name": "BEN_NIR_ANO",
            "description": "NIR pseudonymisé du bénéficiaire",
            "type": "string",
            "nomenclature": "-",
            "length": "17.0",
            "format": "default",
            "dateCreated": "",
            "dateDeleted": "",
            "dateMissing": "",
            "observation": "",
            "regle_gestion": "",
            "type_oracle": "string"
        },
        {
            "name": "BEN_NIR_PSA",
            "description": "Identifiant anonyme du patient dans le SNIIRAM",
            "type": "string",
            "nomenclature": "-",
            "length": "17.0",
            "format": "default",
            "dateCreated": "",
            "dateDeleted": "",
            "dateMissing": "",
            "observation": "",
            "regle_gestion": "",
            "type_oracle": "string"
        },
        {
            "name": "BEN_RNG_GEM",
            "description": "Rang de naissance du bénéficiaire",
            "type": "integer",
            "nomenclature": "-",
            "length": "2.0",
            "format": "default",
            "dateCreated": "",
            "dateDeleted": "",
            "dateMissing": "",
            "observation": "",
            "regle_gestion": "",
            "type_oracle": "number"
        },
        {
            "name": "CTO_IDT_ANO",
            "description": "Identifiant Cartographie",
            "type": "string",
            "nomenclature": "-",
            "length": "18.0",
            "format": "default",
            "dateCreated": "",
            "dateDeleted": "",
            "dateMissing": "",
            "observation": "",
            "regle_gestion": "",
            "type_oracle": "string"
        },
        {
            "name": "IND_RNM_BEN",
            "description": "Top RNIAM",
            "type": "string",
            "nomenclature": "-",
            "length": "1.0",
            "format": "default",
            "dateCreated": "",
            "dateDeleted": "",
            "dateMissing": "",
            "observation": "",
            "regle_gestion": "",
            "type_oracle": "string"
        },
        {
            "name": "MTT_DEB_DTE",
            "description": "Date de début du contrat avec le médecin traitant",
            "type": "date",
            "nomenclature": "-",
            "length": "",
            "format": "default",
            "dateCreated": "",
            "dateDeleted": "",
            "dateMissing": "",
            "observation": "",
            "regle_gestion": "",
            "type_oracle": "date"
        },
        {
            "name": "MTT_FIN_DTE",
            "description": "Date de fin du contrat avec le médecin traitant",
            "type": "date",
            "nomenclature": "-",
            "length": "",
            "format": "default",
            "dateCreated": "",
            "dateDeleted": "",
            "dateMissing": "",
            "observation": "",
            "regle_gestion": "",
            "type_oracle": "date"
        },
        {
            "name": "MTT_MTF_COD",
            "description": "Motif de résiliation du contrat avce le médecin traitant",
            "type": "string",
            "nomenclature": "-",
            "length": "3.0",
            "format": "default",
            "dateCreated": "",
            "dateDeleted": "",
            "dateMissing": "",
            "observation": "",
            "regle_gestion": "",
            "type_oracle": "string"
        },
        {
            "name": "MTT_ORI_COD",
            "description": "Origine de la saisie ou de la mise à jour de la déclaration de médecin traitant",
            "type": "string",
            "nomenclature": "-",
            "length": "1.0",
            "format": "default",
            "dateCreated": "",
            "dateDeleted": "",
            "dateMissing": "",
            "observation": "",
            "regle_gestion": "",
            "type_oracle": "string"
        },
        {
            "name": "MTT_PFS_NUM",
            "description": "Numéro du médecin traitant",
            "type": "string",
            "nomenclature": "-",
            "length": "8.0",
            "format": "default",
            "dateCreated": "",
            "dateDeleted": "",
            "dateMissing": "",
            "observation": "",
            "regle_gestion": "",
            "type_oracle": "string"
        }
    ],
    "missingValues": [
        ""
    ],
    "name": "IR_MTT_R",
    "title": "Table historique des médecins traitants",
    "produit": "REFERENTIELS",
    "foreignKeys": [
        {
            "fields": [
                "BEN_NIR_PSA",
                "BEN_RNG_GEM"
            ],
            "reference": {
                "resource": "IR_BEN_R",
                "fields": [
                    "BEN_NIR_PSA",
                    "BEN_RNG_GEM"
                ]
            }
        },
        {
            "fields": [
                "BEN_IDT_ANO"
            ],
            "reference": {
                "resource": "IR_IBA_R",
                "fields": [
                    "BEN_IDT_ANO"
                ]
            }
        }
    ],
    "history": {
        "dateCreated": "",
        "dateDeleted": "",
        "dateMissing": []
    },
    "champ": "",
    "observation": ""
}