{
    "fields": [
        {
            "name": "GRP",
            "description": "Groupe Physiopathologique",
            "type": "integer",
            "nomenclature": "-",
            "length": "",
            "format": "default",
            "dateCreated": "",
            "dateDeleted": "",
            "dateMissing": "",
            "observation": "",
            "regle_gestion": "",
            "type_oracle": "number"
        },
        {
            "name": "ACTE",
            "description": "Nomenclature détaillée biologie médicale",
            "type": "integer",
            "nomenclature": "-",
            "length": "",
            "format": "default",
            "dateCreated": "",
            "dateDeleted": "",
            "dateMissing": "",
            "observation": "",
            "regle_gestion": "",
            "type_oracle": "number"
        },
        {
            "name": "AGE",
            "description": "Tranche d'Age",
            "type": "integer",
            "nomenclature": "-",
            "length": "",
            "format": "default",
            "dateCreated": "",
            "dateDeleted": "",
            "dateMissing": "",
            "observation": "",
            "regle_gestion": "",
            "type_oracle": "number"
        },
        {
            "name": "SEXE",
            "description": "Sexe",
            "type": "string",
            "nomenclature": "-",
            "length": "",
            "format": "default",
            "dateCreated": "",
            "dateDeleted": "",
            "dateMissing": "",
            "observation": "",
            "regle_gestion": "",
            "type_oracle": "string"
        },
        {
            "name": "BEN_REG",
            "description": "Région de Résidence du Bénéficiaire",
            "type": "integer",
            "nomenclature": "-",
            "length": "",
            "format": "default",
            "dateCreated": "",
            "dateDeleted": "",
            "dateMissing": "",
            "observation": "",
            "regle_gestion": "",
            "type_oracle": "number"
        },
        {
            "name": "PSP_SPE",
            "description": "Prescripteur",
            "type": "integer",
            "nomenclature": "-",
            "length": "",
            "format": "default",
            "dateCreated": "",
            "dateDeleted": "",
            "dateMissing": "",
            "observation": "",
            "regle_gestion": "",
            "type_oracle": "number"
        },
        {
            "name": "DNB",
            "description": "Nombre d'actes",
            "type": "integer",
            "nomenclature": "-",
            "length": "",
            "format": "default",
            "dateCreated": "",
            "dateDeleted": "",
            "dateMissing": "",
            "observation": "",
            "regle_gestion": "",
            "type_oracle": "number"
        },
        {
            "name": "REM",
            "description": "Montant Remboursé",
            "type": "integer",
            "nomenclature": "-",
            "length": "",
            "format": "default",
            "dateCreated": "",
            "dateDeleted": "",
            "dateMissing": "",
            "observation": "",
            "regle_gestion": "",
            "type_oracle": "number"
        },
        {
            "name": "BSE",
            "description": "Base de Remboursement",
            "type": "integer",
            "nomenclature": "-",
            "length": "",
            "format": "default",
            "dateCreated": "",
            "dateDeleted": "",
            "dateMissing": "",
            "observation": "",
            "regle_gestion": "",
            "type_oracle": "number"
        },
        {
            "name": "NBC",
            "description": "Nombre de consommants (disponible uniquement dans les bases type NB_)",
            "type": "integer",
            "nomenclature": "-",
            "length": "",
            "format": "default",
            "dateCreated": "",
            "dateDeleted": "",
            "dateMissing": "",
            "observation": "",
            "regle_gestion": "",
            "type_oracle": "number"
        }
    ],
    "missingValues": [
        ""
    ],
    "name": "OPEN_BIO",
    "title": "OPEN BIO (base complète sur les dépenses de biologie médicale interrégimes)",
    "produit": "OPEN_DATA",
    "history": {
        "dateCreated": "2014",
        "dateDeleted": "",
        "dateMissing": []
    }, 
    "champ":"", 
    "observation":""
}