{
    "fields": [
        {
            "name": "PPU_STA",
            "type": "string",
            "format": "default",
            "role": "code"
        },
        {
            "name": "REA_TAR",
            "type": "number",
            "format": "default"
        },
        {
            "name": "STF_TAR",
            "type": "number",
            "format": "default"
        },
        {
            "name": "SRC_TAR",
            "type": "number",
            "format": "default"
        },
        {
            "name": "NN1_TAR",
            "type": "number",
            "format": "default"
        },
        {
            "name": "NN2_TAR",
            "type": "number",
            "format": "default"
        },
        {
            "name": "NN3_TAR",
            "type": "number",
            "format": "default"
        },
        {
            "name": "REP_TAR",
            "type": "number",
            "format": "default"
        }
    ],
    "missingValues": [
        ""
    ],
    "name": "IR_GHS_SU0_V",
    "title": "Suppléments GHS 2010",
    "primaryKey": [
        "PPU_STA"
    ]
}