{
    "fields": [
        {
            "name": "PRS_NAT",
            "type": "integer",
            "format": "default",
            "role": "code"
        },
        {
            "name": "CPL_COD",
            "type": "integer",
            "format": "default"
        }
    ],
    "missingValues": [
        ""
    ],
    "name": "IR_NAT_CPA_C",
    "title": "Compatibilite Nature de Prestation _ Complement d'Acte",
    "primaryKey": [
        "PRS_NAT", "CPL_COD"
    ]
}