{
    "fields": [
        {
            "name": "PRS_NAT_REF",
            "type": "integer",
            "format": "default",
            "role": "code"
        },
        {
            "name": "NAT_QTE_MAX",
            "type": "number",
            "format": "default"
        }
    ],
    "missingValues": [
        ""
    ],
    "name": "IR_NAT_QTE_C",
    "title": "Compatibilite Nature de Prestation _ Quantite Maxi",
    "primaryKey": [
        "PRS_NAT_REF", "NAT_QTE_MAX"
    ]
}