{
    "fields": [
        {
            "name": "PRS_NAT",
            "type": "integer",
            "format": "default",
            "role": "code"
        },
        {
            "name": "PFS_ACT_NAT",
            "type": "integer",
            "format": "default"
        }
    ],
    "missingValues": [
        ""
    ],
    "name": "IR_NAT_ACE_C",
    "title": "Compatibilite Nature de Prestation /  Nature d'Activite Executant",
    "primaryKey": [
        "PRS_NAT", "PFS_ACT_NAT"
    ]
}