PRS_NAT;DPN_QLF
1054;0
1054;30
1054;35
1055;0
1055;30
1055;35
1056;0
1056;20
1056;30
1056;35
1057;0
1057;20
1057;30
1057;35
1058;0
1058;12
1058;30
1058;35
1059;0
1059;12
1059;30
1059;35
1060;0
1060;30
1060;35
1061;0
1061;30
1061;35
1065;0
1065;35
1066;0
1066;35
1067;0
1067;30
1067;35
1068;0
1068;30
1068;35
1069;0
1069;30
1069;35
1070;0
1070;30
1070;35
1071;0
1071;30
1071;35
1072;0
1072;30
1072;35
1073;0
1073;30
1073;35
1074;0
1074;30
1074;35
1075;0
1075;30
1075;35
1077;0
1077;30
1077;35
1078;0
1078;30
1078;35
1079;0
1079;30
1079;35
1080;0
1080;30
1080;35
1081;0
1081;30
1081;35
1082;0
1082;30
1082;35
1083;0
1083;30
1083;35
1084;0
1084;30
1084;35
1085;20
1085;30
1086;0
1086;12
1086;20
1086;30
1086;35
1089;0
1089;12
1089;35
1090;0
1090;12
1090;30
1090;35
1091;0
1091;12
1091;30
1091;35
1092;0
1092;12
1092;30
1092;35
1093;0
1093;12
1093;30
1093;35
1094;0
1094;12
1094;30
1094;35
1094;61
1094;62
1095;0
1095;20
1095;30
1095;35
1095;40
1096;0
1096;12
1096;20
1096;30
1096;35
1096;61
1096;71
1097;0
1097;12
1097;20
1097;30
1097;35
1097;61
1097;71
1098;0
1098;12
1098;20
1098;30
1098;35
1098;61
1099;0
1099;12
1099;20
1099;30
1099;35
1099;61
1100;0
1100;20
1100;30
1100;35
1100;71
1101;0
1101;12
1101;14
1101;20
1101;30
1101;40
1101;61
1101;66
1101;71
1102;0
1102;12
1102;14
1102;20
1102;30
1102;40
1102;61
1102;66
1102;71
1103;0
1103;12
1103;14
1103;20
1103;30
1103;40
1103;61
1103;66
1103;71
1104;0
1104;12
1104;20
1104;30
1104;61
1104;62
1104;66
1104;71
1105;0
1105;12
1105;20
1105;30
1105;35
1105;61
1105;71
1106;0
1106;20
1106;30
1106;35
1107;0
1107;12
1107;20
1107;30
1107;35
1107;61
1107;62
1107;66
1107;71
1108;0
1108;20
1108;30
1108;35
1109;0
1109;12
1109;20
1109;30
1109;35
1109;61
1109;66
1109;71
1110;0
1110;12
1110;20
1110;30
1110;35
1110;61
1110;66
1110;71
1111;0
1111;12
1111;14
1111;20
1111;30
1111;40
1111;61
1111;66
1111;71
1112;0
1112;12
1112;14
1112;20
1112;30
1112;40
1112;61
1112;66
1112;71
1113;0
1113;12
1113;14
1113;20
1113;30
1113;40
1113;61
1113;66
1113;71
1114;0
1114;12
1114;14
1114;20
1114;30
1114;40
1114;61
1114;66
1114;71
1115;0
1115;12
1115;14
1115;20
1115;30
1115;40
1115;66
1115;71
1116;0
1116;20
1116;30
1116;63
1116;71
1117;0
1117;12
1117;14
1117;20
1117;30
1117;40
1117;61
1117;66
1117;71
1432;0
1432;12
1432;14
1432;20
1432;30
1432;40
1432;71
1433;0
1433;11
1433;12
1433;14
1433;20
1433;30
1433;40
1433;71
1434;0
1434;20
1434;71
1435;0
1435;20
1435;71
1436;0
1436;20
1436;71
1437;0
1437;30
1438;0
1438;20
1438;71
1438;72
1439;0
1439;20
1439;71
1439;72
1451;0
1451;11
1451;12
1451;14
1451;20
1451;30
1451;40
1451;61
1451;62
1451;64
1451;65
1451;66
1451;71
1452;0
1452;11
1452;12
1452;14
1452;20
1452;30
1452;40
1452;61
1452;62
1452;64
1452;65
1452;66
1452;71
1453;0
1453;11
1453;12
1453;20
1453;30
1453;40
1453;61
1453;62
1453;64
1453;65
1453;66
1453;71
1462;0
1462;11
1462;12
1462;14
1462;20
1462;30
1462;40
1462;61
1462;62
1462;64
1462;65
1462;66
1462;71
1465;0
1465;11
1465;12
1465;14
1465;20
1465;30
1465;40
1465;61
1465;62
1465;64
1465;65
1465;66
1465;71
1470;0
1470;11
1470;12
1470;20
1470;30
1470;40
1470;61
1470;62
1470;64
1470;65
1470;66
1470;71
1471;0
1471;11
1471;12
1471;20
1471;30
1471;40
1471;61
1471;62
1471;64
1471;65
1471;66
1471;71
1472;0
1472;11
1472;12
1472;20
1472;30
1472;40
1472;61
1472;62
1472;64
1472;65
1472;66
1472;71
1473;0
1473;11
1473;12
1473;20
1473;30
1473;40
1473;61
1473;62
1473;64
1473;65
1473;66
1473;71
1474;0
1474;11
1474;12
1474;20
1474;30
1474;40
1474;61
1474;62
1474;64
1474;65
1474;66
1474;71
1475;0
1475;11
1475;12
1475;20
1475;30
1475;40
1475;61
1475;62
1475;64
1475;65
1475;66
1475;71
1476;0
1476;11
1476;12
1476;20
1476;30
1476;40
1476;61
1476;62
1476;64
1476;65
1476;66
1476;71
1477;0
1477;11
1477;12
1477;20
1477;30
1477;40
1477;61
1477;62
1477;64
1477;65
1477;66
1477;71
1521;0
1521;20
1521;30
1522;0
1522;20
1522;30
1523;0
1523;30
1601;0
1601;30
1602;0
1602;30
1605;0
1605;30
1606;0
1606;30
1608;0
1608;30
1610;0
1715;0
1715;30
1716;0
1716;30
1717;0
1717;30
1717;71
1721;0
1721;71
1722;0
1722;71
1723;0
1723;71
1724;0
1724;71
1725;0
1725;71
1726;0
1726;71
1727;0
1727;71
1728;0
1728;71
1729;0
1729;71
1731;0
1731;71
1732;0
1732;71
1733;0
1733;71
1734;0
1734;71
1735;0
1735;71
1736;0
1736;71
1741;0
1741;71
2118;30
2118;40
2119;0
2119;30
2119;35
2119;40
2129;0
2129;30
2129;40
2131;0
2131;30
2131;40
2132;0
2132;30
2132;40
2133;0
2133;30
2133;40
2134;0
2134;30
2134;40
2135;0
2135;30
2135;40
2136;0
2136;30
2136;40
2137;0
2137;30
2137;40
2138;0
2138;30
2138;40
2139;0
2139;30
2139;40
2140;0
2140;30
2140;40
2141;0
2141;30
2141;40
2142;0
2142;30
2142;40
2143;0
2143;30
2143;40
2144;0
2144;30
2144;40
2145;0
2145;30
2145;40
2146;0
2146;30
2146;40
2147;0
2147;30
2147;40
2148;0
2148;35
2149;0
2149;35
2150;0
2150;20
2150;30
2150;71
2151;0
2151;30
2151;40
2152;0
2152;30
2152;40
2153;0
2153;30
2153;40
2153;71
2154;0
2154;30
2154;40
2155;0
2155;30
2155;40
2155;71
2156;0
2156;30
2156;40
2156;71
2157;0
2157;30
2157;40
2157;71
2158;0
2158;30
2158;40
2158;71
2159;0
2159;12
2159;14
2159;20
2159;30
2159;40
2159;61
2159;71
2161;0
2161;30
2161;40
2163;0
2163;30
2163;40
2164;0
2164;30
2164;40
2164;71
2165;0
2165;30
2165;35
2165;40
2165;71
2166;0
2166;30
2166;35
2166;40
2166;71
2167;0
2167;30
2167;35
2167;40
2167;71
2168;0
2168;30
2168;35
2168;40
2180;0
2180;30
2181;0
2181;30
2181;40
2182;0
2182;30
2182;40
2183;0
2183;30
2183;40
2184;0
2184;30
2184;40
2185;0
2185;30
2186;0
2186;30
2187;0
2187;30
2188;0
2188;30
2189;0
2189;30
2190;0
2190;30
2191;0
2191;30
2195;0
2195;30
2195;40
2196;0
2196;30
2196;40
2199;0
2199;35
2201;0
2201;11
2201;12
2201;13
2201;14
2201;15
2201;20
2201;30
2201;40
2207;0
2207;30
2207;35
2207;40
2208;0
2208;30
2208;35
2208;40
2209;0
2209;30
2209;35
2209;40
2210;0
2210;30
2210;35
2210;40
2211;0
2211;20
2211;30
2211;40
2212;0
2212;20
2212;30
2212;71
2213;0
2213;20
2213;30
2213;40
2216;0
2216;30
2216;35
2216;40
2217;0
2217;30
2217;35
2217;40
2218;0
2218;30
2218;35
2218;40
2219;0
2219;30
2219;35
2219;40
2220;0
2220;30
2220;35
2220;40
2221;0
2221;20
2221;30
2221;40
2222;0
2222;20
2222;30
2222;40
2228;0
2228;30
2228;35
2228;40
2229;0
2229;20
2229;30
2229;71
2230;0
2230;20
2230;30
2230;40
2231;0
2231;20
2231;30
2231;40
2232;0
2232;30
2233;0
2233;30
2233;35
2233;40
2234;0
2234;20
2234;30
2234;40
2234;71
2235;0
2235;20
2235;30
2235;40
2235;71
2236;0
2236;20
2236;30
2236;40
2236;71
2237;0
2237;30
2238;0
2238;20
2238;30
2238;40
2238;71
2240;0
2240;30
2240;71
2240;72
2241;0
2241;20
2241;30
2241;40
2242;0
2242;20
2242;30
2242;40
2242;71
2391;0
2391;20
2391;30
2391;71
2392;0
2392;20
2392;30
2411;0
2411;20
2411;30
2411;40
2412;0
2412;20
2412;30
2412;40
2413;0
2413;20
2413;30
2413;40
2414;0
2414;12
2414;14
2414;20
2414;30
2414;40
2415;0
2415;20
2415;30
2415;40
2416;0
2416;20
2416;30
2416;40
2417;0
2417;20
2417;30
2417;40
2418;0
2418;14
2418;20
2418;30
2418;40
2419;0
2419;20
2419;30
2419;40
2420;0
2420;20
2420;30
2420;40
2421;0
2421;20
2421;30
2421;40
2422;0
2422;20
2422;30
2422;40
2423;0
2423;20
2423;30
2423;40
2424;0
2424;20
2424;30
2424;40
2426;0
2426;12
2426;14
2426;20
2426;30
2426;40
2428;0
2428;20
2428;30
2428;40
2501;0
2501;30
2501;40
2502;0
2502;30
2502;40
2503;0
2503;30
2503;40
2504;0
2504;30
2504;40
3103;0
3103;12
3103;13
3103;20
3103;30
3103;35
3103;66
3104;0
3104;12
3104;13
3104;20
3104;30
3104;35
3104;66
3105;0
3105;12
3105;13
3105;20
3105;30
3105;35
3105;66
3106;0
3106;12
3106;20
3106;30
3106;35
3106;66
3107;0
3107;12
3107;20
3107;30
3107;35
3107;66
3108;0
3108;12
3108;20
3108;30
3108;35
3108;66
3109;0
3109;20
3109;30
3109;35
3111;0
3111;12
3111;13
3111;20
3111;30
3111;40
3111;66
3111;71
3112;0
3112;12
3112;13
3112;20
3112;30
3112;40
3112;66
3112;71
3113;0
3113;12
3113;13
3113;20
3113;30
3113;40
3113;71
3115;0
3115;20
3115;30
3115;40
3116;0
3116;20
3116;30
3116;71
3117;0
3117;20
3117;30
3117;71
3120;0
3120;12
3120;13
3120;20
3120;30
3120;35
3120;66
3121;0
3121;12
3121;20
3121;30
3121;40
3121;66
3121;71
3122;0
3122;12
3122;20
3122;30
3122;40
3122;66
3122;71
3123;0
3123;12
3123;20
3123;30
3123;35
3124;0
3124;20
3124;30
3124;35
3125;0
3125;12
3125;20
3125;30
3125;40
3125;66
3125;71
3127;0
3127;20
3127;30
3127;35
3128;0
3128;20
3128;30
3128;35
3129;0
3129;12
3129;13
3129;20
3129;30
3129;35
3129;66
3130;0
3130;12
3130;13
3130;20
3130;30
3130;35
3130;66
3131;0
3131;12
3131;15
3131;20
3131;30
3131;40
3131;66
3131;71
3132;0
3132;12
3132;20
3132;30
3132;40
3132;66
3132;71
3552;40
3552;71
3553;0
3553;30
3554;0
3554;30
3555;0
3555;30
3556;0
3556;30
3557;0
3557;30
3558;0
3558;20
3558;30
3558;35
3558;40
3558;50
3559;0
3559;20
3559;30
3559;35
3559;40
3560;0
3560;20
3560;30
3560;35
3560;40
3561;0
3561;20
3561;30
3561;71
3562;0
3562;20
3562;30
3562;35
3562;40
3563;0
3563;20
3563;30
3563;35
3563;40
3564;0
3564;20
3564;30
3564;35
3564;40
3565;0
3565;20
3565;30
3565;35
3565;40
3566;0
3566;20
3566;30
3566;35
3566;40
3567;0
3567;20
3567;30
3567;35
3567;40
3568;0
3568;20
3568;30
3568;35
3568;40
3569;0
3569;20
3569;30
3569;35
3569;40
3570;0
3570;20
3570;30
3570;35
3570;40
3572;0
3572;20
3572;30
3572;40
3572;71
3574;0
3574;20
3574;30
3574;71
3576;0
3576;20
3576;30
3576;71
3578;0
3578;20
3578;30
3578;35
3578;40
3579;0
3579;20
3579;30
3579;35
3579;40
3580;0
3580;20
3580;30
3580;35
3580;40
3581;0
3581;30
3582;0
3582;30
3583;0
3583;30
3584;0
3584;20
3584;30
3584;35
3584;40
3585;0
3585;20
3585;30
3585;35
3585;40
3586;0
3586;20
3586;30
3586;35
3586;40
3587;0
3587;20
3587;30
3587;35
3587;40
3588;0
3588;20
3588;30
3588;35
3588;40
3590;0
3590;20
3590;30
3590;35
3590;40
3592;0
3592;35
3593;0
3593;20
3593;30
3593;35
3596;0
3596;30
3596;35
3597;0
3597;20
3597;30
3597;35
3597;40
4111;0
4111;12
4111;14
4111;20
4111;30
4111;40
4111;61
4111;66
4111;71
4112;0
4112;12
4112;14
4112;20
4112;30
4112;40
4112;61
4112;66
4112;71
4113;0
4113;12
4113;14
4113;20
4113;30
4113;40
4113;61
4113;62
4113;65
4113;66
4113;71
4114;0
4114;12
4114;14
4114;20
4114;30
4114;40
4114;71
4131;0
4131;20
4131;30
4131;40
4132;0
4132;20
4132;30
4132;40
4132;71
4141;0
4141;20
4141;30
4141;40
4142;0
4142;20
4142;30
4142;40
4143;0
4143;20
4143;30
4143;40
4144;0
4144;20
4144;30
4144;40
4145;0
4145;20
4145;30
4151;0
4151;20
4151;30
4151;40
4152;0
4152;20
4152;30
4152;40
4153;0
4153;20
4153;30
4153;40
4154;0
4154;20
4154;30
4154;40
4155;0
4155;20
4155;30
4155;35
4155;40
4156;0
4156;20
4156;30
4156;35
4156;40
1742;0
1742;71
1743;0
1743;71
1744;0
1744;71
1745;0
1745;71
1746;0
1746;71
1747;0
1747;71
1748;0
1748;71
1749;0
1749;71
1751;0
1751;71
1781;0
1781;71
1782;0
1782;20
1782;71
1783;0
1783;20
1783;71
1784;0
1784;20
1784;71
1785;0
1785;20
1785;71
1786;0
1786;20
1786;71
1787;0
1787;20
1787;71
1788;0
1788;20
1788;71
1789;0
1789;20
1789;71
1791;0
1791;20
1791;71
1811;0
1811;20
1811;30
1812;0
1812;20
1812;30
1813;0
1813;20
1813;30
1821;0
1821;20
1821;30
1821;40
1841;0
1841;13
1841;20
1841;30
1841;40
1842;0
1842;20
1842;30
1842;40
1843;0
1843;20
1843;30
1843;40
1844;0
1844;20
1844;30
1844;40
1845;0
1845;20
1845;30
1845;40
1846;0
1846;20
1846;30
1846;40
1847;0
1847;20
1847;30
1847;40
1848;0
1848;12
1848;13
1848;20
1848;30
1848;35
1848;66
1849;0
1849;12
1849;20
1849;30
1849;35
1849;66
1901;0
1901;12
1901;20
1901;30
1901;35
1901;61
1901;66
1901;71
1903;0
1903;20
1903;30
1903;35
1903;71
1904;0
1904;20
1904;30
1904;35
1905;0
1905;20
1905;30
1905;35
1906;0
1906;20
1906;30
1906;35
1908;0
1908;12
1908;13
1908;20
1908;30
1908;40
1908;66
1909;0
1909;12
1909;13
1909;20
1909;30
1909;40
1909;66
1910;0
1910;30
1911;0
1911;12
1911;13
1911;20
1911;30
1911;40
1911;66
1911;71
1912;0
1912;12
1912;13
1912;14
1912;20
1912;30
1912;40
1913;0
1913;30
1913;71
1914;0
1914;30
1914;71
1918;0
1918;20
1918;30
1918;40
1921;0
1921;20
1923;0
1923;12
1923;20
1923;30
1923;71
1929;0
1929;20
1929;30
1930;0
1930;20
1930;30
1931;0
1931;30
1931;63
1931;71
1932;0
1932;30
1932;71
1933;0
1933;20
1933;30
1934;0
1934;20
1934;30
1935;0
1935;20
1935;30
1936;0
1936;20
1936;30
1937;0
1937;20
1937;30
1938;0
1938;20
1938;30
1939;0
1939;20
1939;30
1939;35
1939;66
1940;0
1940;20
1940;30
1940;35
1940;66
1941;0
1941;20
1941;30
1942;0
1942;20
1942;30
1943;0
1943;20
1943;30
1943;35
1943;71
1944;0
1944;20
1944;30
1944;35
1945;0
1945;20
1945;30
1945;35
1959;0
1959;30
1959;35
1962;0
1962;35
1981;0
1981;20
1981;30
1981;40
1981;71
1990;0
1990;20
1990;30
1991;0
1991;30
1992;0
1992;30
1993;0
1993;30
1994;0
1994;30
1995;0
1995;30
1996;0
1996;30
1997;0
1997;30
1998;0
1998;30
1999;0
1999;30
2100;0
2100;30
2100;35
2100;40
2101;0
2102;0
2102;20
2102;30
2102;40
2103;0
2103;30
2103;35
2103;40
2104;0
2104;30
2104;35
2104;40
2105;0
2105;30
2105;35
2105;40
2106;0
2106;30
2106;35
2106;40
2107;0
2107;30
2107;35
2107;40
2108;0
2108;30
2108;35
2108;40
2109;0
2109;30
2109;35
2109;40
2110;0
2110;35
2111;0
2111;30
2111;40
2112;0
2112;30
2113;0
2113;30
2113;40
2116;0
2116;30
2116;40
2117;0
2117;30
2117;40
2118;0
1405;64
1405;65
1405;66
1405;71
1406;0
1406;11
1406;12
1406;20
1406;30
1406;35
1406;40
1406;61
1406;62
1406;64
1406;65
1406;66
1406;71
1407;0
1407;11
1407;12
1407;20
1407;30
1407;35
1407;40
1407;61
1407;62
1407;64
1407;65
1407;66
1407;71
1408;0
1408;11
1408;12
1408;20
1408;30
1408;35
1408;40
1408;61
1408;62
1408;64
1408;65
1408;66
1408;71
1409;0
1409;11
1409;12
1409;20
1409;30
1409;35
1409;40
1409;61
1409;62
1409;64
1409;65
1409;66
1409;71
1410;0
1410;11
1410;12
1410;20
1410;30
1410;35
1410;40
1410;61
1410;62
1410;64
1410;65
1410;66
1410;71
1411;0
1411;11
1411;12
1411;14
1411;20
1411;30
1411;40
1411;66
1411;71
1412;0
1412;11
1412;12
1412;20
1412;30
1412;35
1412;40
1412;61
1412;62
1412;64
1412;65
1412;66
1412;71
1413;0
1413;11
1413;12
1413;20
1413;30
1413;35
1413;40
1413;61
1413;62
1413;64
1413;65
1413;66
1413;71
1414;0
1414;11
1414;12
1414;20
1414;30
1414;35
1414;40
1414;61
1414;62
1414;64
1414;65
1414;66
1414;71
1415;0
1415;11
1415;12
1415;20
1415;30
1415;35
1415;40
1415;61
1415;62
1415;64
1415;65
1415;66
1415;71
1416;0
1416;11
1416;12
1416;20
1416;30
1416;35
1416;40
1416;61
1416;62
1416;64
1416;65
1416;66
1416;71
1417;0
1417;11
1417;12
1417;20
1417;30
1417;35
1417;40
1417;61
1417;62
1417;64
1417;65
1417;66
1417;71
1418;0
1418;11
1418;12
1418;20
1418;30
1418;35
1418;40
1418;61
1418;62
1418;64
1418;65
1418;66
1418;71
1419;0
1419;11
1419;12
1419;20
1419;30
1419;35
1419;40
1419;61
1419;62
1419;64
1419;65
1419;66
1419;71
1420;0
1420;11
1420;12
1420;20
1420;30
1420;35
1420;40
1420;61
1420;62
1420;64
1420;65
1420;66
1420;71
1421;0
1421;11
1421;12
1421;14
1421;20
1421;30
1421;40
1421;66
1421;71
1422;0
1422;11
1422;12
1422;14
1422;20
1422;30
1422;66
1422;71
1423;0
1423;11
1423;12
1423;14
1423;20
1423;30
1423;40
1423;66
1423;71
1424;0
1424;11
1424;12
1424;14
1424;20
1424;30
1424;66
1424;71
1426;0
1426;35
1431;0
1431;11
1431;12
1431;14
1431;20
1431;30
1431;40
1431;71
4157;0
4157;20
4157;30
4157;35
4157;40
4158;0
4158;20
4158;30
4158;35
4158;40
4203;0
4203;20
4203;30
4203;35
4204;0
4204;20
4204;30
4204;35
4204;40
4205;0
4205;20
4205;30
4205;35
4205;40
4206;0
4206;20
4206;30
4207;0
4207;20
4207;30
4207;40
4208;0
4208;20
4208;30
4208;40
4210;0
4210;20
4210;30
4211;0
4211;20
4211;30
4211;40
4211;71
4212;0
4212;20
4212;30
4212;40
4213;0
4213;20
4213;30
4213;40
4214;0
4214;20
4214;30
4214;40
4215;0
4215;30
4215;40
4216;0
4216;20
4216;30
4216;40
4217;0
4217;20
4217;30
4218;0
4218;20
4218;30
4219;0
4219;20
4219;30
4219;40
4220;0
4220;20
4220;30
4221;0
4221;20
4221;30
4221;40
4225;0
4225;20
4225;30
4225;40
4226;0
4226;20
4226;30
4226;40
4229;0
4229;20
4229;30
4230;0
4230;20
4230;30
4230;35
4230;40
4231;0
4231;20
4231;30
4231;35
4231;40
4232;0
4232;20
4232;30
4232;35
4232;40
4233;0
4233;20
4233;30
4233;35
4233;40
4234;0
4315;0
4315;20
4316;0
4316;20
4316;71
4325;0
4325;20
4341;0
4341;11
4341;12
4341;13
4341;14
4341;15
4341;20
4341;30
4341;40
4343;0
4343;20
4343;40
4381;0
4381;30
4381;71
4382;0
4382;30
4382;71
4511;0
4511;20
4611;0
4611;71
5201;0
5201;30
5201;71
5202;0
5202;30
5202;71
5203;0
5203;30
5203;71
5204;0
5204;30
5204;71
5205;0
5205;30
5205;71
5206;0
5206;30
5206;71
5401;0
5401;30
5402;0
5402;20
5402;30
5402;35
5402;40
5403;0
5403;20
5403;30
5403;35
5403;40
6115;0
6115;12
6115;13
6115;14
6115;15
6115;20
6115;40
6221;0
6221;20
6222;0
6222;20
6233;0
6233;20
6233;40
8111;0
8111;20
9123;0
9123;20
9123;40
9162;0
9162;20
9201;0
9201;30
9202;0
9202;30
9203;0
9203;30
9221;0
9221;20
9311;0
9311;20
9421;0
9421;20
9421;71
9422;0
9422;20
9422;71
9423;0
9423;20
9423;71
9429;0
9429;20
9431;0
9431;20
9431;30
9431;71
9432;0
9432;12
9432;14
9432;20
9432;30
9433;0
9433;11
9433;12
9433;14
9433;20
9433;30
9433;40
9433;61
9433;62
9433;65
9433;66
9434;0
9434;20
9434;30
9435;0
9435;20
9435;71
9435;72
9436;0
9436;20
9436;71
9436;72
9566;0
9566;30
9566;63
9566;71
9569;0
9569;20
9569;30
9570;0
9570;12
9570;20
9570;30
9570;40
9570;66
9570;71
1221;0
1221;20
1221;30
1221;40
1222;0
1222;12
1222;14
1222;20
1222;30
1222;40
1224;0
1224;20
1224;30
1224;40
1226;0
1226;20
1226;30
1226;40
1227;0
1227;20
1227;30
1227;40
1228;0
1228;20
1228;30
1228;40
1311;0
1311;12
1311;14
1311;20
1311;30
1311;40
1311;71
1312;0
1312;12
1312;14
1312;20
1312;30
1312;40
1312;61
1312;71
1313;0
1313;20
1313;30
1313;40
1316;0
1316;12
1316;14
1316;20
1316;30
1316;40
1316;61
1316;62
1316;65
1316;66
1316;71
1318;0
1318;12
1318;14
1318;20
1318;30
1318;40
1318;61
1318;62
1318;65
1318;66
1318;71
1321;0
1321;11
1321;12
1321;14
1321;20
1321;30
1321;40
1321;61
1321;62
1321;65
1321;66
1321;71
1322;0
1322;12
1322;14
1322;20
1322;30
1322;40
1322;61
1322;62
1322;65
1322;66
1322;71
1323;0
1323;12
1323;14
1323;20
1323;30
1323;40
1323;61
1323;62
1323;65
1323;66
1323;71
1324;0
1324;12
1324;14
1324;20
1324;30
1324;40
1324;61
1324;62
1324;65
1324;66
1324;71
1331;0
1331;12
1331;14
1331;20
1331;30
1331;40
1331;71
1335;0
1335;12
1335;14
1335;20
1335;30
1335;40
1335;61
1335;62
1335;65
1335;66
1335;71
1336;0
1336;12
1336;14
1336;20
1336;30
1336;40
1336;61
1336;62
1336;65
1336;66
1336;71
1351;0
1351;11
1351;12
1351;14
1351;20
1351;30
1351;40
1351;61
1351;62
1351;65
1351;66
1351;71
1352;0
1352;11
1352;12
1352;14
1352;20
1352;30
1352;40
1352;61
1352;62
1352;65
1352;66
1352;71
1361;0
1361;20
1361;30
1400;0
1400;11
1400;12
1400;20
1400;30
1400;35
1400;40
1400;61
1400;62
1400;64
1400;65
1400;66
1400;71
1401;0
1401;11
1401;12
1401;20
1401;30
1401;35
1401;40
1401;61
1401;62
1401;64
1401;65
1401;66
1401;71
1402;0
1402;11
1402;12
1402;20
1402;30
1402;35
1402;40
1402;61
1402;62
1402;64
1402;65
1402;66
1402;71
1403;0
1403;11
1403;12
1403;20
1403;30
1403;35
1403;40
1403;61
1403;62
1403;64
1403;65
1403;66
1403;71
1404;0
1404;11
1404;12
1404;20
1404;30
1404;35
1404;40
1404;61
1404;62
1404;64
1404;65
1404;66
1404;71
1405;0
1405;11
1405;12
1405;20
1405;30
1405;35
1405;40
1405;61
1405;62
2243;0
2243;20
2243;30
2243;40
2243;71
2244;0
2244;30
2245;0
2245;20
2245;30
2246;0
2246;20
2246;30
2247;0
2247;20
2247;30
2247;40
2248;0
2248;30
2249;0
2249;30
2250;0
2250;30
2251;0
2251;30
2251;40
2252;0
2252;30
2253;0
2253;30
2253;35
2253;71
2253;72
2256;0
2256;30
2256;35
2257;0
2257;30
2258;0
2258;30
2258;71
2259;0
2259;30
2259;40
2259;71
2260;0
2260;30
2261;0
2261;20
2261;30
2261;40
2261;71
2262;0
2262;20
2262;30
2262;40
2262;71
2266;0
2266;30
2266;35
2266;40
2267;0
2267;30
2267;35
2267;40
2268;0
2268;30
2268;35
2268;40
2271;0
2271;20
2271;30
2271;40
2272;0
2272;20
2272;30
2272;40
2273;0
2273;20
2273;30
2273;40
2274;0
2274;20
2274;30
2274;40
2275;0
2275;20
2275;30
2275;40
2276;0
2276;30
2276;35
2276;40
2277;0
2277;30
2277;35
2277;40
2278;0
2278;30
2278;35
2278;40
2279;0
2279;30
2279;35
2279;40
2281;0
2281;30
2283;0
2283;30
2285;0
2285;11
2285;12
2285;13
2285;14
2285;15
2285;20
2285;30
2285;40
2285;50
2285;61
2285;62
2285;63
2285;64
2285;65
2285;66
2285;71
2288;0
2288;30
2288;35
2288;40
2289;0
2289;30
2289;35
2289;40
2290;0
2297;0
2297;30
2298;0
2298;30
2299;0
2299;30
2299;35
2299;71
2299;72
2300;0
2300;35
2300;71
2300;72
2309;0
2309;35
2315;0
2315;20
2315;30
2315;40
2331;0
2331;20
2331;30
2331;40
2331;71
2332;0
2332;20
2332;30
2332;40
2333;0
2333;20
2333;30
2333;40
2334;0
2334;20
2334;30
2334;40
2334;71
2335;0
2335;20
2335;30
2335;40
2335;71
2336;0
2336;20
2336;30
2336;40
2337;0
2337;20
2337;30
2337;40
2338;0
2338;20
2338;30
2338;40
2338;71
2339;0
2339;20
2339;30
2339;40
2339;71
2341;0
2341;20
2341;30
2341;40
2341;71
2351;0
2351;20
2351;30
2351;71
2352;0
2352;20
2352;30
2352;71
2353;0
2353;20
2353;30
2353;71
2354;0
2354;20
2354;30
2354;71
2355;0
2355;20
2355;30
2356;0
2356;20
2356;30
2357;0
2357;20
2357;30
2358;0
2358;20
2358;30
2359;0
2359;20
2359;30
2360;0
2360;20
2360;30
2361;0
2361;20
2361;30
2362;0
2362;20
2362;30
2363;0
2363;20
2363;30
2364;0
2364;20
2364;30
2365;0
2365;20
2365;30
2366;0
2366;20
2366;30
2367;0
2367;20
2367;30
2368;0
2368;20
2368;30
2369;0
2369;20
2369;30
2371;0
2371;20
2371;30
2372;0
2372;20
2372;30
2373;0
2373;20
2373;30
2380;0
2380;30
2381;0
2381;30
2382;0
2382;30
2383;0
2383;30
2384;0
2384;30
2385;0
2385;30
2386;0
2386;30
2387;0
2387;30
2388;0
2388;30
2389;0
2389;30
3327;0
3327;20
3327;30
3327;40
3327;71
3328;0
3328;20
3328;30
3328;40
3328;71
3329;0
3329;20
3329;30
3329;40
3329;71
3330;0
3330;30
3332;0
3332;30
3334;0
3334;20
3334;30
3335;0
3335;20
3335;30
3336;0
3336;30
3336;35
3337;0
3337;20
3337;30
3337;35
3338;0
3338;20
3338;30
3338;35
3339;0
3339;20
3339;30
3339;35
3340;0
3340;20
3340;30
3340;35
3341;0
3341;20
3341;30
3341;40
3341;71
3342;0
3342;20
3342;30
3342;71
3343;0
3343;20
3343;30
3343;71
3344;0
3344;20
3344;30
3344;35
3345;0
3345;20
3345;30
3345;35
3346;0
3346;20
3346;30
3346;35
3347;0
3347;20
3347;30
3347;35
3348;0
3348;20
3348;30
3348;35
3349;0
3349;20
3349;30
3349;35
3350;0
3350;20
3350;30
3350;35
3351;0
3351;20
3351;30
3351;71
3352;0
3352;30
3352;71
3353;0
3353;30
3353;71
3354;0
3354;30
3354;71
3355;0
3355;71
3356;0
3356;30
3357;0
3357;30
3358;0
3358;20
3358;30
3358;35
3359;0
3359;20
3359;30
3359;35
3360;0
3360;20
3360;30
3360;35
3364;0
3364;20
3364;30
3364;35
3365;0
3365;20
3365;30
3365;35
3366;0
3366;20
3366;30
3366;35
3367;0
3367;20
3367;30
3367;35
3368;0
3368;20
3368;30
3368;35
3369;0
3369;20
3369;30
3369;35
3370;0
3370;20
3370;30
3370;35
3373;0
3373;30
3373;35
3373;71
3375;0
3375;20
3375;30
3375;71
3376;0
3376;20
3376;30
3376;35
3379;0
3379;20
3379;30
3380;0
3380;20
3380;30
3381;0
3381;20
3381;30
3383;0
3383;20
3383;30
3384;0
3384;20
3384;30
3385;0
3385;20
3385;30
3386;0
3386;20
3386;30
3387;0
3387;20
3387;30
3388;0
3388;20
3388;30
3389;0
3389;20
3389;30
3390;0
3390;20
3390;30
3395;0
3395;30
3399;0
3399;20
3399;30
3399;71
3402;0
3402;20
3402;30
3402;35
3404;0
3404;20
3404;30
3404;35
3408;0
3408;30
3408;35
3410;0
3410;20
3410;30
3410;35
3411;0
3411;20
3411;30
3411;71
3412;0
3412;20
3412;30
3412;71
3413;0
3413;20
3413;30
3413;71
3414;0
3414;20
3414;30
3414;71
3415;0
3415;20
3415;30
3415;35
3416;0
3416;20
3416;30
3416;35
3500;0
3500;20
3500;30
3500;35
3500;40
3501;0
3501;20
3501;30
3501;35
3501;40
3502;0
3502;20
3502;30
3502;35
3502;40
3503;0
3503;20
3503;30
3503;35
3503;40
3504;0
3504;20
3504;30
3504;35
3504;40
3505;0
3505;20
3505;30
3505;35
3505;40
3506;0
3506;20
3506;30
3506;35
3506;40
3507;0
3507;20
3507;30
3507;35
3507;40
3508;0
3508;20
3508;30
3508;35
3508;40
3509;0
3509;20
3509;30
3509;35
3509;40
3510;0
3510;20
3510;30
3510;35
3510;40
3511;0
3511;20
3511;30
3511;40
3512;0
3512;20
3512;30
3512;40
3513;0
3513;20
3513;30
3513;40
3513;71
3514;0
3514;20
3514;30
3514;40
3514;71
3515;0
3515;20
3515;30
3515;40
3515;71
3516;0
3516;20
3516;30
3516;40
3516;71
3517;0
3517;20
3517;30
3517;40
3517;71
3518;0
3518;20
3518;30
3518;40
3518;71
3519;0
3519;20
3519;30
3519;35
3519;40
3520;0
3520;20
3520;30
3520;35
3520;40
3521;0
3521;20
3521;30
3521;40
3521;71
3522;0
3522;20
3522;30
3523;0
3523;30
3524;0
3524;30
3525;0
3525;30
3526;0
3526;30
3527;0
3527;30
3528;0
3528;30
3529;0
3529;30
3530;0
3530;30
3531;0
3531;20
3531;30
3531;40
3532;0
3532;20
3532;30
3532;40
3533;0
3533;20
3533;30
3534;0
3534;30
3535;0
3535;20
3535;30
3535;40
3536;0
3536;30
3537;0
3537;30
3538;0
3538;30
3539;0
3539;30
3540;0
3540;20
3540;30
3540;35
3540;40
3540;50
3541;0
3541;20
3541;30
3541;40
3542;0
3542;20
3542;30
3542;40
3542;71
3543;0
3543;20
3543;30
3543;40
3543;71
3544;0
3544;20
3544;30
3544;40
3545;0
3545;20
3545;30
3545;71
3548;0
3548;20
3548;30
3549;0
3549;20
3549;30
3550;0
3550;20
3550;30
3550;35
3550;40
3550;50
3551;0
3551;20
3551;30
3551;40
3551;71
3552;0
3552;20
3552;30
1118;0
1118;12
1118;14
1118;20
1118;30
1118;40
1118;61
1118;66
1118;71
1119;0
1119;20
1119;30
1119;40
1119;71
1120;0
1120;30
1121;0
1121;12
1121;14
1121;20
1121;30
1121;40
1121;71
1122;0
1122;20
1122;71
1123;0
1123;20
1123;30
1123;71
1125;0
1125;20
1125;30
1125;63
1125;71
1126;0
1126;20
1126;30
1126;63
1126;71
1127;0
1127;20
1127;30
1127;63
1127;71
1129;0
1129;20
1129;30
1129;63
1129;71
1131;0
1131;20
1131;30
1131;40
1131;71
1132;0
1132;20
1132;30
1132;40
1132;71
1133;0
1133;20
1133;30
1133;40
1133;66
1133;71
1134;0
1134;20
1134;30
1134;71
1135;0
1135;20
1135;30
1135;71
1136;0
1136;20
1136;30
1136;71
1137;0
1137;20
1137;30
1137;71
1140;0
1140;12
1140;14
1140;20
1140;30
1140;40
1140;61
1140;66
1141;0
1141;20
1141;30
1141;40
1141;63
1141;66
1152;0
1152;20
1152;30
1152;63
1153;0
1153;20
1153;30
1153;63
1154;0
1154;20
1154;30
1154;63
1157;0
1157;20
1157;30
1158;0
1158;20
1158;30
1159;0
1159;20
1159;30
1164;0
1164;20
1164;30
1165;0
1165;20
1165;30
1168;0
1168;12
1168;20
1168;30
1168;61
1168;62
1168;66
1168;71
1170;0
1170;35
1172;0
1172;20
1172;30
1172;35
1174;0
1174;20
1174;30
1174;35
1191;0
1191;12
1191;20
1191;30
1191;35
1191;61
1191;66
1192;0
1192;12
1192;20
1192;30
1192;35
1192;61
1192;66
1193;0
1193;12
1193;20
1193;30
1193;35
1193;66
1193;71
1194;0
1194;12
1194;20
1194;30
1194;35
1194;66
1194;71
1196;0
1196;30
1196;35
1201;0
1201;20
1201;30
1201;35
1202;0
1202;20
1202;30
1202;35
1209;0
1209;12
1209;20
1209;30
1209;35
1209;61
1209;66
1210;0
1210;12
1210;20
1210;30
1210;35
1210;61
1210;66
1211;0
1211;12
1211;14
1211;20
1211;30
1211;40
1211;61
1211;66
1212;0
1212;12
1212;14
1212;20
1212;30
1212;40
1212;61
1212;66
1213;0
1213;12
1213;14
1213;20
1213;30
1213;40
1213;61
1213;66
1214;0
1214;12
1214;14
1214;20
1214;30
1214;40
1214;61
1214;66
1215;0
1215;12
1215;14
1215;20
1215;30
1215;40
1215;61
1215;66
1215;71
1216;0
1216;12
1216;14
1216;20
1216;30
1216;40
1216;61
1216;66
1216;71
3133;0
3133;12
3133;20
3133;30
3133;40
3133;66
3133;71
3134;0
3134;20
3134;30
3134;71
3135;0
3135;20
3135;30
3135;35
3135;71
3136;0
3136;20
3136;30
3136;35
3137;0
3137;20
3137;30
3137;35
3138;0
3138;20
3138;30
3138;35
3140;0
3140;12
3140;20
3140;30
3140;35
3141;0
3141;12
3141;20
3141;30
3141;35
3142;0
3142;12
3142;20
3142;30
3142;35
3143;0
3143;12
3143;20
3143;30
3143;35
3144;0
3144;35
3145;0
3145;12
3145;20
3145;30
3145;35
3146;0
3146;12
3146;20
3146;30
3146;35
3147;0
3147;12
3147;20
3147;30
3147;35
3148;0
3148;12
3148;20
3148;30
3148;35
3149;0
3149;12
3149;20
3149;30
3149;35
3150;0
3151;0
3151;12
3151;20
3151;30
3151;35
3152;0
3152;12
3152;20
3152;30
3152;35
3153;0
3153;12
3153;20
3153;30
3153;35
3154;0
3154;12
3154;20
3154;30
3154;35
3155;0
3155;12
3155;20
3155;30
3155;35
3156;0
3156;12
3156;20
3156;30
3156;35
3157;0
3157;12
3157;20
3157;30
3157;35
3158;0
3158;12
3158;20
3158;30
3158;35
3159;0
3159;12
3159;20
3159;30
3159;35
3160;0
3160;12
3160;20
3160;30
3160;35
3161;0
3161;12
3161;20
3161;30
3161;35
3162;0
3162;12
3162;20
3162;30
3162;35
3163;0
3163;12
3163;20
3163;30
3163;35
3164;0
3164;12
3164;20
3164;30
3164;35
3165;0
3165;12
3165;20
3165;30
3165;35
3211;0
3211;12
3211;20
3211;30
3211;40
3211;71
3213;0
3213;20
3213;30
3213;40
3213;71
3216;0
3216;20
3216;30
3216;40
3216;71
3221;0
3221;12
3221;20
3221;30
3221;40
3221;71
3222;0
3222;12
3222;20
3222;30
3222;40
3222;71
3223;0
3223;12
3223;20
3223;30
3223;40
3223;71
3225;0
3225;12
3225;20
3225;30
3225;40
3225;71
3308;0
3308;20
3308;30
3308;35
3309;0
3309;20
3309;30
3309;35
3310;0
3310;20
3310;30
3310;35
3311;0
3311;20
3311;30
3311;71
3312;0
3312;20
3312;30
3312;40
3312;71
3313;0
3313;20
3313;30
3313;40
3313;71
3317;0
3317;30
3317;71
3318;0
3318;30
3318;71
3319;0
3319;30
3319;71
3320;0
3320;30
3320;71
3321;0
3321;20
3321;30
3322;0
3322;20
3322;30
3323;0
3323;20
3323;30
3324;0
3324;30
3324;71
3325;0
3325;30
3326;0
3326;20
3326;30
3326;40
3326;71
