{
    "fields": [
        {
            "name": "SEJ_RGP_TYP",
            "type": "string",
            "format": "default",
            "role": "code"
        },
        {
            "name": "SEJ_RGP_LIB",
            "type": "string",
            "format": "default",
            "role": "label"
        },
        {
            "name": "TEC_COL",
            "type": "integer",
            "format": "default"
        }
    ],
    "missingValues": [
        ""
    ],
    "name": "IR_RGP_V",
    "title": "type de regroupement de séjour dans le cadre du projet T2A SSR",
    "primaryKey": [
        "SEJ_RGP_TYP"
    ]
}